G75*
%MOIN*%
%OFA0B0*%
%FSLAX24Y24*%
%IPPOS*%
%LPD*%
%AMOC8*
5,1,8,0,0,1.08239X$1,22.5*
%
%ADD10R,0.1180X0.1180*%
%ADD11R,0.0945X0.0945*%
%ADD12R,0.0327X0.0248*%
%ADD13R,0.0710X0.0630*%
%ADD14R,0.0118X0.0472*%
%ADD15R,0.0472X0.0118*%
%ADD16R,0.0512X0.0591*%
%ADD17R,0.0600X0.0550*%
%ADD18R,0.0425X0.0413*%
%ADD19R,0.0413X0.0425*%
%ADD20R,0.0591X0.0512*%
%ADD21R,0.0433X0.0394*%
%ADD22R,0.0394X0.0433*%
%ADD23R,0.0315X0.0472*%
%ADD24R,0.0315X0.0087*%
%ADD25R,0.0118X0.0315*%
%ADD26R,0.0315X0.0118*%
%ADD27R,0.0157X0.0098*%
%ADD28R,0.0709X0.0630*%
%ADD29R,0.0315X0.0315*%
%ADD30C,0.0059*%
%ADD31R,0.1772X0.1772*%
%ADD32R,0.0550X0.0600*%
%ADD33C,0.0600*%
%ADD34OC8,0.0600*%
%ADD35R,0.0138X0.0787*%
%ADD36R,0.1772X0.1811*%
%ADD37C,0.0866*%
%ADD38C,0.0669*%
%ADD39R,0.0299X0.0807*%
%ADD40R,0.0400X0.1000*%
%ADD41R,0.0807X0.0299*%
%ADD42R,0.0120X0.0320*%
%ADD43R,0.1240X0.0670*%
%ADD44R,0.0866X0.0630*%
%ADD45R,0.0520X0.0220*%
%ADD46R,0.1378X0.0984*%
%ADD47R,0.0709X0.1063*%
%ADD48C,0.0630*%
%ADD49C,0.1310*%
%ADD50C,0.0120*%
%ADD51OC8,0.0396*%
%ADD52C,0.0100*%
%ADD53OC8,0.0278*%
%ADD54C,0.0160*%
%ADD55C,0.0240*%
%ADD56C,0.0080*%
%ADD57C,0.0400*%
%ADD58C,0.0320*%
D10*
X004167Y022241D03*
D11*
X002417Y020357D03*
X002417Y018624D03*
X002067Y024024D03*
X003301Y024391D03*
X005033Y024391D03*
X002067Y025757D03*
D12*
X004817Y023243D03*
X004817Y022338D03*
D13*
X003817Y020550D03*
X003817Y019431D03*
D14*
X005640Y017304D03*
X005837Y017304D03*
X006034Y017304D03*
X006231Y017304D03*
X006428Y017304D03*
X006625Y017304D03*
X006821Y017304D03*
X007018Y017304D03*
X007215Y017304D03*
X007412Y017304D03*
X007609Y017304D03*
X007806Y017304D03*
X008002Y017304D03*
X008199Y017304D03*
X008396Y017304D03*
X008593Y017304D03*
X008593Y012777D03*
X008396Y012777D03*
X008199Y012777D03*
X008002Y012777D03*
X007806Y012777D03*
X007609Y012777D03*
X007412Y012777D03*
X007215Y012777D03*
X007018Y012777D03*
X006821Y012777D03*
X006625Y012777D03*
X006428Y012777D03*
X006231Y012777D03*
X006034Y012777D03*
X005837Y012777D03*
X005640Y012777D03*
D15*
X004853Y013564D03*
X004853Y013761D03*
X004853Y013958D03*
X004853Y014155D03*
X004853Y014352D03*
X004853Y014549D03*
X004853Y014745D03*
X004853Y014942D03*
X004853Y015139D03*
X004853Y015336D03*
X004853Y015533D03*
X004853Y015730D03*
X004853Y015926D03*
X004853Y016123D03*
X004853Y016320D03*
X004853Y016517D03*
X009380Y016517D03*
X009380Y016320D03*
X009380Y016123D03*
X009380Y015926D03*
X009380Y015730D03*
X009380Y015533D03*
X009380Y015336D03*
X009380Y015139D03*
X009380Y014942D03*
X009380Y014745D03*
X009380Y014549D03*
X009380Y014352D03*
X009380Y014155D03*
X009380Y013958D03*
X009380Y013761D03*
X009380Y013564D03*
D16*
X004191Y014341D03*
X003443Y014341D03*
X007243Y024491D03*
X007991Y024491D03*
X007991Y025191D03*
X007243Y025191D03*
X007643Y025891D03*
X008391Y025891D03*
D17*
X008809Y018874D03*
X008809Y018208D03*
X007625Y018208D03*
X007625Y018874D03*
D18*
X008367Y019496D03*
X008967Y019496D03*
X008967Y020185D03*
X008367Y020185D03*
X005717Y019485D03*
X005717Y018796D03*
X004017Y016585D03*
X004017Y015896D03*
X010037Y016096D03*
X010037Y016785D03*
X013167Y015385D03*
X013167Y014696D03*
X014417Y013435D03*
X014417Y012746D03*
X016442Y013546D03*
X016442Y014235D03*
X007967Y028596D03*
X007317Y028596D03*
X007317Y029285D03*
X007967Y029285D03*
X041566Y016278D03*
X041566Y015589D03*
X044786Y014830D03*
X044786Y014141D03*
X047267Y013902D03*
X047267Y014591D03*
X042016Y018139D03*
X042016Y018828D03*
D19*
X045573Y017055D03*
X046262Y017055D03*
X046263Y016470D03*
X045574Y016470D03*
X046979Y017040D03*
X047668Y017040D03*
X048278Y016772D03*
X048967Y016772D03*
X048043Y015890D03*
X047354Y015890D03*
X046493Y013740D03*
X045804Y013740D03*
X015611Y014091D03*
X014922Y014091D03*
X014922Y012641D03*
X015611Y012641D03*
X013161Y015891D03*
X012472Y015891D03*
X004661Y012991D03*
X003972Y012991D03*
X006372Y026141D03*
X007061Y026141D03*
D20*
X004792Y020365D03*
X004792Y019617D03*
X011417Y016665D03*
X011417Y015917D03*
D21*
X007701Y019516D03*
X007032Y019516D03*
X008942Y020756D03*
X008942Y021425D03*
X006901Y022691D03*
X006232Y022691D03*
X005667Y022075D03*
X005667Y021406D03*
X006267Y024756D03*
X006267Y025425D03*
X032367Y015725D03*
X033117Y015725D03*
X033867Y015725D03*
X033867Y015056D03*
X033117Y015056D03*
X032367Y015056D03*
X041042Y014906D03*
X041042Y015575D03*
X046388Y017636D03*
X047057Y017636D03*
X046991Y016465D03*
X047660Y016465D03*
X040292Y023456D03*
X039692Y023456D03*
X039692Y024125D03*
X040292Y024125D03*
X043832Y023716D03*
X044501Y023716D03*
X045732Y023716D03*
X046401Y023716D03*
D22*
X046401Y024266D03*
X045732Y024266D03*
X045201Y024266D03*
X044532Y024266D03*
X048232Y023566D03*
X048901Y023566D03*
X048901Y022966D03*
X048232Y022966D03*
X044845Y018778D03*
X044176Y018778D03*
X045094Y017628D03*
X045764Y017628D03*
X042600Y015028D03*
X041930Y015028D03*
X016417Y016056D03*
X016417Y016725D03*
X013176Y013941D03*
X012507Y013941D03*
X007701Y020066D03*
X007032Y020066D03*
X006901Y022141D03*
X006232Y022141D03*
X003967Y022506D03*
X003967Y023175D03*
X003117Y023175D03*
X003117Y022506D03*
D23*
X004112Y018491D03*
X004821Y018491D03*
X012462Y016491D03*
X013171Y016491D03*
X016062Y015491D03*
X016771Y015491D03*
X014421Y013991D03*
X013712Y013991D03*
D24*
X015208Y013706D03*
X015208Y013548D03*
X015208Y013391D03*
X015208Y013233D03*
X015208Y013076D03*
X015925Y013076D03*
X015925Y013233D03*
X015925Y013391D03*
X015925Y013548D03*
X015925Y013706D03*
D25*
X014909Y014721D03*
X014712Y014721D03*
X014515Y014721D03*
X014318Y014721D03*
X014121Y014721D03*
X013925Y014721D03*
X013925Y016660D03*
X014121Y016660D03*
X014318Y016660D03*
X014515Y016660D03*
X014712Y016660D03*
X014909Y016660D03*
D26*
X015189Y016380D03*
X015189Y016183D03*
X015189Y015986D03*
X015189Y015789D03*
X015189Y015592D03*
X015189Y015395D03*
X015189Y015199D03*
X015189Y015002D03*
X013644Y015002D03*
X013644Y015199D03*
X013644Y015395D03*
X013644Y015592D03*
X013644Y015789D03*
X013644Y015986D03*
X013644Y016183D03*
X013644Y016380D03*
D27*
X016853Y016394D03*
X016857Y016591D03*
X016857Y016787D03*
X017377Y016787D03*
X017377Y016591D03*
X017377Y016394D03*
D28*
X023192Y024789D03*
X023192Y025892D03*
D29*
X017042Y014486D03*
X017042Y013895D03*
X013542Y013286D03*
X013042Y013291D03*
X012542Y013291D03*
X012542Y012700D03*
X013042Y012700D03*
X013542Y012695D03*
X032367Y013895D03*
X033117Y013895D03*
X033867Y013895D03*
X033867Y014486D03*
X033117Y014486D03*
X032367Y014486D03*
X041167Y014486D03*
X041929Y014480D03*
X041929Y013890D03*
X041167Y013895D03*
D30*
X042393Y015438D02*
X042453Y015438D01*
X042393Y015438D02*
X042393Y015714D01*
X042453Y015714D01*
X042453Y015438D01*
X042453Y015496D02*
X042393Y015496D01*
X042393Y015554D02*
X042453Y015554D01*
X042453Y015612D02*
X042393Y015612D01*
X042393Y015670D02*
X042453Y015670D01*
X042590Y015438D02*
X042650Y015438D01*
X042590Y015438D02*
X042590Y015714D01*
X042650Y015714D01*
X042650Y015438D01*
X042650Y015496D02*
X042590Y015496D01*
X042590Y015554D02*
X042650Y015554D01*
X042650Y015612D02*
X042590Y015612D01*
X042590Y015670D02*
X042650Y015670D01*
X042787Y015438D02*
X042847Y015438D01*
X042787Y015438D02*
X042787Y015714D01*
X042847Y015714D01*
X042847Y015438D01*
X042847Y015496D02*
X042787Y015496D01*
X042787Y015554D02*
X042847Y015554D01*
X042847Y015612D02*
X042787Y015612D01*
X042787Y015670D02*
X042847Y015670D01*
X042984Y015438D02*
X043044Y015438D01*
X042984Y015438D02*
X042984Y015714D01*
X043044Y015714D01*
X043044Y015438D01*
X043044Y015496D02*
X042984Y015496D01*
X042984Y015554D02*
X043044Y015554D01*
X043044Y015612D02*
X042984Y015612D01*
X042984Y015670D02*
X043044Y015670D01*
X043181Y015438D02*
X043241Y015438D01*
X043181Y015438D02*
X043181Y015714D01*
X043241Y015714D01*
X043241Y015438D01*
X043241Y015496D02*
X043181Y015496D01*
X043181Y015554D02*
X043241Y015554D01*
X043241Y015612D02*
X043181Y015612D01*
X043181Y015670D02*
X043241Y015670D01*
X043378Y015438D02*
X043438Y015438D01*
X043378Y015438D02*
X043378Y015714D01*
X043438Y015714D01*
X043438Y015438D01*
X043438Y015496D02*
X043378Y015496D01*
X043378Y015554D02*
X043438Y015554D01*
X043438Y015612D02*
X043378Y015612D01*
X043378Y015670D02*
X043438Y015670D01*
X043574Y015438D02*
X043634Y015438D01*
X043574Y015438D02*
X043574Y015714D01*
X043634Y015714D01*
X043634Y015438D01*
X043634Y015496D02*
X043574Y015496D01*
X043574Y015554D02*
X043634Y015554D01*
X043634Y015612D02*
X043574Y015612D01*
X043574Y015670D02*
X043634Y015670D01*
X043771Y015438D02*
X043831Y015438D01*
X043771Y015438D02*
X043771Y015714D01*
X043831Y015714D01*
X043831Y015438D01*
X043831Y015496D02*
X043771Y015496D01*
X043771Y015554D02*
X043831Y015554D01*
X043831Y015612D02*
X043771Y015612D01*
X043771Y015670D02*
X043831Y015670D01*
X043968Y015438D02*
X044028Y015438D01*
X043968Y015438D02*
X043968Y015714D01*
X044028Y015714D01*
X044028Y015438D01*
X044028Y015496D02*
X043968Y015496D01*
X043968Y015554D02*
X044028Y015554D01*
X044028Y015612D02*
X043968Y015612D01*
X043968Y015670D02*
X044028Y015670D01*
X044165Y015438D02*
X044225Y015438D01*
X044165Y015438D02*
X044165Y015714D01*
X044225Y015714D01*
X044225Y015438D01*
X044225Y015496D02*
X044165Y015496D01*
X044165Y015554D02*
X044225Y015554D01*
X044225Y015612D02*
X044165Y015612D01*
X044165Y015670D02*
X044225Y015670D01*
X044352Y015841D02*
X044628Y015841D01*
X044352Y015841D02*
X044352Y015901D01*
X044628Y015901D01*
X044628Y015841D01*
X044628Y015899D02*
X044352Y015899D01*
X044352Y016038D02*
X044628Y016038D01*
X044352Y016038D02*
X044352Y016098D01*
X044628Y016098D01*
X044628Y016038D01*
X044628Y016096D02*
X044352Y016096D01*
X044352Y016235D02*
X044628Y016235D01*
X044352Y016235D02*
X044352Y016295D01*
X044628Y016295D01*
X044628Y016235D01*
X044628Y016293D02*
X044352Y016293D01*
X044352Y016432D02*
X044628Y016432D01*
X044352Y016432D02*
X044352Y016492D01*
X044628Y016492D01*
X044628Y016432D01*
X044628Y016490D02*
X044352Y016490D01*
X044352Y016629D02*
X044628Y016629D01*
X044352Y016629D02*
X044352Y016689D01*
X044628Y016689D01*
X044628Y016629D01*
X044628Y016687D02*
X044352Y016687D01*
X044352Y016826D02*
X044628Y016826D01*
X044352Y016826D02*
X044352Y016886D01*
X044628Y016886D01*
X044628Y016826D01*
X044628Y016884D02*
X044352Y016884D01*
X044352Y017022D02*
X044628Y017022D01*
X044352Y017022D02*
X044352Y017082D01*
X044628Y017082D01*
X044628Y017022D01*
X044628Y017080D02*
X044352Y017080D01*
X044352Y017219D02*
X044628Y017219D01*
X044352Y017219D02*
X044352Y017279D01*
X044628Y017279D01*
X044628Y017219D01*
X044628Y017277D02*
X044352Y017277D01*
X044352Y017416D02*
X044628Y017416D01*
X044352Y017416D02*
X044352Y017476D01*
X044628Y017476D01*
X044628Y017416D01*
X044628Y017474D02*
X044352Y017474D01*
X044352Y017613D02*
X044628Y017613D01*
X044352Y017613D02*
X044352Y017673D01*
X044628Y017673D01*
X044628Y017613D01*
X044628Y017671D02*
X044352Y017671D01*
X044225Y017800D02*
X044165Y017800D01*
X044165Y018076D01*
X044225Y018076D01*
X044225Y017800D01*
X044225Y017858D02*
X044165Y017858D01*
X044165Y017916D02*
X044225Y017916D01*
X044225Y017974D02*
X044165Y017974D01*
X044165Y018032D02*
X044225Y018032D01*
X044028Y017800D02*
X043968Y017800D01*
X043968Y018076D01*
X044028Y018076D01*
X044028Y017800D01*
X044028Y017858D02*
X043968Y017858D01*
X043968Y017916D02*
X044028Y017916D01*
X044028Y017974D02*
X043968Y017974D01*
X043968Y018032D02*
X044028Y018032D01*
X043831Y017800D02*
X043771Y017800D01*
X043771Y018076D01*
X043831Y018076D01*
X043831Y017800D01*
X043831Y017858D02*
X043771Y017858D01*
X043771Y017916D02*
X043831Y017916D01*
X043831Y017974D02*
X043771Y017974D01*
X043771Y018032D02*
X043831Y018032D01*
X043634Y017800D02*
X043574Y017800D01*
X043574Y018076D01*
X043634Y018076D01*
X043634Y017800D01*
X043634Y017858D02*
X043574Y017858D01*
X043574Y017916D02*
X043634Y017916D01*
X043634Y017974D02*
X043574Y017974D01*
X043574Y018032D02*
X043634Y018032D01*
X043438Y017800D02*
X043378Y017800D01*
X043378Y018076D01*
X043438Y018076D01*
X043438Y017800D01*
X043438Y017858D02*
X043378Y017858D01*
X043378Y017916D02*
X043438Y017916D01*
X043438Y017974D02*
X043378Y017974D01*
X043378Y018032D02*
X043438Y018032D01*
X043241Y017800D02*
X043181Y017800D01*
X043181Y018076D01*
X043241Y018076D01*
X043241Y017800D01*
X043241Y017858D02*
X043181Y017858D01*
X043181Y017916D02*
X043241Y017916D01*
X043241Y017974D02*
X043181Y017974D01*
X043181Y018032D02*
X043241Y018032D01*
X043044Y017800D02*
X042984Y017800D01*
X042984Y018076D01*
X043044Y018076D01*
X043044Y017800D01*
X043044Y017858D02*
X042984Y017858D01*
X042984Y017916D02*
X043044Y017916D01*
X043044Y017974D02*
X042984Y017974D01*
X042984Y018032D02*
X043044Y018032D01*
X042847Y017800D02*
X042787Y017800D01*
X042787Y018076D01*
X042847Y018076D01*
X042847Y017800D01*
X042847Y017858D02*
X042787Y017858D01*
X042787Y017916D02*
X042847Y017916D01*
X042847Y017974D02*
X042787Y017974D01*
X042787Y018032D02*
X042847Y018032D01*
X042650Y017800D02*
X042590Y017800D01*
X042590Y018076D01*
X042650Y018076D01*
X042650Y017800D01*
X042650Y017858D02*
X042590Y017858D01*
X042590Y017916D02*
X042650Y017916D01*
X042650Y017974D02*
X042590Y017974D01*
X042590Y018032D02*
X042650Y018032D01*
X042453Y017800D02*
X042393Y017800D01*
X042393Y018076D01*
X042453Y018076D01*
X042453Y017800D01*
X042453Y017858D02*
X042393Y017858D01*
X042393Y017916D02*
X042453Y017916D01*
X042453Y017974D02*
X042393Y017974D01*
X042393Y018032D02*
X042453Y018032D01*
X042266Y017613D02*
X041990Y017613D01*
X041990Y017673D01*
X042266Y017673D01*
X042266Y017613D01*
X042266Y017671D02*
X041990Y017671D01*
X041990Y017416D02*
X042266Y017416D01*
X041990Y017416D02*
X041990Y017476D01*
X042266Y017476D01*
X042266Y017416D01*
X042266Y017474D02*
X041990Y017474D01*
X041990Y017219D02*
X042266Y017219D01*
X041990Y017219D02*
X041990Y017279D01*
X042266Y017279D01*
X042266Y017219D01*
X042266Y017277D02*
X041990Y017277D01*
X041990Y017022D02*
X042266Y017022D01*
X041990Y017022D02*
X041990Y017082D01*
X042266Y017082D01*
X042266Y017022D01*
X042266Y017080D02*
X041990Y017080D01*
X041990Y016826D02*
X042266Y016826D01*
X041990Y016826D02*
X041990Y016886D01*
X042266Y016886D01*
X042266Y016826D01*
X042266Y016884D02*
X041990Y016884D01*
X041990Y016629D02*
X042266Y016629D01*
X041990Y016629D02*
X041990Y016689D01*
X042266Y016689D01*
X042266Y016629D01*
X042266Y016687D02*
X041990Y016687D01*
X041990Y016432D02*
X042266Y016432D01*
X041990Y016432D02*
X041990Y016492D01*
X042266Y016492D01*
X042266Y016432D01*
X042266Y016490D02*
X041990Y016490D01*
X041990Y016235D02*
X042266Y016235D01*
X041990Y016235D02*
X041990Y016295D01*
X042266Y016295D01*
X042266Y016235D01*
X042266Y016293D02*
X041990Y016293D01*
X041990Y016038D02*
X042266Y016038D01*
X041990Y016038D02*
X041990Y016098D01*
X042266Y016098D01*
X042266Y016038D01*
X042266Y016096D02*
X041990Y016096D01*
X041990Y015841D02*
X042266Y015841D01*
X041990Y015841D02*
X041990Y015901D01*
X042266Y015901D01*
X042266Y015841D01*
X042266Y015899D02*
X041990Y015899D01*
D31*
X043309Y016757D03*
D32*
X045840Y015714D03*
X046506Y015714D03*
X046506Y014530D03*
X045840Y014530D03*
D33*
X040067Y015191D03*
X022567Y027341D03*
X002417Y027341D03*
X017917Y015191D03*
D34*
X018917Y015191D03*
X018917Y014191D03*
X017917Y014191D03*
X017917Y013191D03*
X018917Y013191D03*
X022567Y013191D03*
X023567Y013191D03*
X023567Y014191D03*
X022567Y014191D03*
X022567Y015191D03*
X023567Y015191D03*
X023567Y016191D03*
X022567Y016191D03*
X022567Y017191D03*
X023567Y017191D03*
X009017Y024591D03*
X002417Y028341D03*
X001417Y028341D03*
X001417Y029341D03*
X002417Y029341D03*
X001417Y027341D03*
X009017Y029241D03*
X022567Y029341D03*
X023567Y029341D03*
X023567Y028341D03*
X022567Y028341D03*
X023567Y027341D03*
X039067Y015191D03*
X039067Y014191D03*
X040067Y014191D03*
X040067Y013191D03*
X039067Y013191D03*
X002417Y013191D03*
X001417Y013191D03*
X001417Y014191D03*
X002417Y014191D03*
X002417Y015191D03*
X001417Y015191D03*
X001417Y016191D03*
X002417Y016191D03*
X002417Y017191D03*
X001417Y017191D03*
D35*
X026000Y025126D03*
X026236Y025126D03*
X026472Y025126D03*
X026708Y025126D03*
X026945Y025126D03*
X027181Y025126D03*
X027417Y025126D03*
X027653Y025126D03*
X027890Y025126D03*
X028126Y025126D03*
X028362Y025126D03*
X028598Y025126D03*
X028834Y025126D03*
X029071Y025126D03*
X029307Y025126D03*
X029543Y025126D03*
X029779Y025126D03*
X030015Y025126D03*
X030252Y025126D03*
X030488Y025126D03*
X030724Y025126D03*
X030960Y025126D03*
X031197Y025126D03*
X031433Y025126D03*
X031669Y025126D03*
X031905Y025126D03*
X032141Y025126D03*
X032378Y025126D03*
X032614Y025126D03*
X032850Y025126D03*
X033086Y025126D03*
X033323Y025126D03*
X033559Y025126D03*
X033795Y025126D03*
X034031Y025126D03*
X034267Y025126D03*
X034504Y025126D03*
X034740Y025126D03*
X034976Y025126D03*
X035212Y025126D03*
X035449Y025126D03*
X035685Y025126D03*
X035921Y025126D03*
X036157Y025126D03*
X036393Y025126D03*
X036630Y025126D03*
X036866Y025126D03*
X037102Y025126D03*
X037338Y025126D03*
X037575Y025126D03*
X037811Y025126D03*
X038047Y025126D03*
X038283Y025126D03*
X038519Y025126D03*
X038756Y025126D03*
X038992Y025126D03*
X039228Y025126D03*
X039464Y025126D03*
X039701Y025126D03*
X039937Y025126D03*
X040173Y025126D03*
X040409Y025126D03*
X040645Y025126D03*
X040882Y025126D03*
X041118Y025126D03*
X041354Y025126D03*
X041590Y025126D03*
X041827Y025126D03*
X042063Y025126D03*
X042299Y025126D03*
X042535Y025126D03*
X042771Y025126D03*
X043008Y025126D03*
X043244Y025126D03*
X043480Y025126D03*
X043716Y025126D03*
X043952Y025126D03*
X044189Y025126D03*
X044425Y025126D03*
X044661Y025126D03*
X046315Y025126D03*
X046551Y025126D03*
X046787Y025126D03*
X047023Y025126D03*
X047260Y025126D03*
X047496Y025126D03*
X047732Y025126D03*
X047968Y025126D03*
X048204Y025126D03*
X048441Y025126D03*
X048677Y025126D03*
X048913Y025126D03*
X049149Y025126D03*
X049386Y025126D03*
X049622Y025126D03*
X049858Y025126D03*
X050094Y025126D03*
X050330Y025126D03*
X050567Y025126D03*
X050803Y025126D03*
X050921Y028355D03*
X050685Y028355D03*
X050449Y028355D03*
X050212Y028355D03*
X049976Y028355D03*
X049740Y028355D03*
X049504Y028355D03*
X049267Y028355D03*
X049031Y028355D03*
X048795Y028355D03*
X048559Y028355D03*
X048323Y028355D03*
X048086Y028355D03*
X047850Y028355D03*
X047614Y028355D03*
X047378Y028355D03*
X047141Y028355D03*
X046905Y028355D03*
X046669Y028355D03*
X046433Y028355D03*
X044779Y028355D03*
X044543Y028355D03*
X044307Y028355D03*
X044071Y028355D03*
X043834Y028355D03*
X043598Y028355D03*
X043362Y028355D03*
X043126Y028355D03*
X042890Y028355D03*
X042653Y028355D03*
X042417Y028355D03*
X042181Y028355D03*
X041945Y028355D03*
X041708Y028355D03*
X041472Y028355D03*
X041236Y028355D03*
X041000Y028355D03*
X040764Y028355D03*
X040527Y028355D03*
X040291Y028355D03*
X040055Y028355D03*
X039819Y028355D03*
X039582Y028355D03*
X039346Y028355D03*
X039110Y028355D03*
X038874Y028355D03*
X038638Y028355D03*
X038401Y028355D03*
X038165Y028355D03*
X037929Y028355D03*
X037693Y028355D03*
X037456Y028355D03*
X037220Y028355D03*
X036984Y028355D03*
X036748Y028355D03*
X036512Y028355D03*
X036275Y028355D03*
X036039Y028355D03*
X035803Y028355D03*
X035567Y028355D03*
X035330Y028355D03*
X035094Y028355D03*
X034858Y028355D03*
X034622Y028355D03*
X034386Y028355D03*
X034149Y028355D03*
X033913Y028355D03*
X033677Y028355D03*
X033441Y028355D03*
X033204Y028355D03*
X032968Y028355D03*
X032732Y028355D03*
X032496Y028355D03*
X032260Y028355D03*
X032023Y028355D03*
X031787Y028355D03*
X031551Y028355D03*
X031315Y028355D03*
X031078Y028355D03*
X030842Y028355D03*
X030606Y028355D03*
X030370Y028355D03*
X030134Y028355D03*
X029897Y028355D03*
X029661Y028355D03*
X029425Y028355D03*
X029189Y028355D03*
X028952Y028355D03*
X028716Y028355D03*
X028480Y028355D03*
X028244Y028355D03*
X028008Y028355D03*
X027771Y028355D03*
X027535Y028355D03*
X027299Y028355D03*
X027063Y028355D03*
X026827Y028355D03*
X026590Y028355D03*
X026354Y028355D03*
X026118Y028355D03*
D36*
X025645Y022016D03*
X051275Y022016D03*
D37*
X037495Y014150D03*
X034739Y014150D03*
D38*
X035132Y013166D03*
X037101Y013166D03*
D39*
X011767Y013290D03*
X011267Y013290D03*
X010767Y013290D03*
X010267Y013290D03*
X010267Y014691D03*
X010767Y014691D03*
X011267Y014691D03*
X011767Y014691D03*
D40*
X049517Y016791D03*
X052117Y016791D03*
D41*
X052167Y014441D03*
X052167Y013941D03*
X052167Y013441D03*
X052167Y012941D03*
X050766Y012941D03*
X050766Y013441D03*
X050766Y013941D03*
X050766Y014441D03*
D42*
X008157Y026561D03*
X007967Y026561D03*
X007767Y026561D03*
X007567Y026561D03*
X007377Y026561D03*
X007377Y027721D03*
X007567Y027721D03*
X007767Y027721D03*
X007967Y027721D03*
X008157Y027721D03*
D43*
X007767Y027141D03*
D44*
X009117Y027692D03*
X009117Y026589D03*
D45*
X006187Y024211D03*
X007047Y023841D03*
X006187Y023471D03*
D46*
X006296Y028141D03*
X003737Y028141D03*
D47*
X003651Y025791D03*
X005383Y025791D03*
D48*
X009183Y023284D03*
X009183Y022497D03*
X001550Y022584D03*
X001550Y021797D03*
D49*
X026617Y023726D03*
X026617Y018556D03*
D50*
X002217Y012541D02*
X001917Y012841D01*
X001917Y013691D01*
X001417Y014191D01*
X003167Y015391D02*
X003418Y015139D01*
X004853Y015139D01*
X005256Y015080D02*
X005467Y015291D01*
X005267Y015491D01*
X005267Y016241D01*
X005187Y016320D01*
X004853Y016320D01*
X004282Y016320D01*
X004017Y016585D01*
X004417Y016641D02*
X004417Y016841D01*
X004267Y016991D01*
X003467Y016991D01*
X002667Y016191D01*
X002417Y016191D01*
X002767Y016691D02*
X001917Y016691D01*
X001417Y016191D01*
X000917Y015941D02*
X001167Y015691D01*
X003417Y015691D01*
X003617Y015491D01*
X004267Y015491D01*
X004506Y015730D01*
X004853Y015730D01*
X005817Y015691D02*
X006428Y016302D01*
X006428Y017304D01*
X006428Y017680D01*
X006167Y017941D01*
X006167Y020941D01*
X006067Y021041D01*
X006367Y021341D02*
X006367Y018091D01*
X006625Y017833D01*
X006625Y017304D01*
X006821Y017304D02*
X006821Y017986D01*
X006567Y018241D01*
X006567Y020991D01*
X006667Y021091D01*
X006667Y021741D01*
X006717Y021741D01*
X006817Y021841D01*
X006817Y022106D01*
X006901Y022141D01*
X006901Y022691D01*
X006232Y022691D02*
X005977Y022691D01*
X005827Y022541D01*
X006232Y022691D02*
X006232Y022141D01*
X006267Y021741D02*
X006667Y021741D01*
X006867Y021441D02*
X006867Y020691D01*
X007182Y020206D02*
X007417Y020441D01*
X007967Y020441D01*
X008267Y020741D01*
X008926Y020741D01*
X008942Y020756D01*
X008826Y020741D01*
X008817Y020741D01*
X008872Y020241D02*
X008872Y020185D01*
X008917Y020141D01*
X008917Y020096D02*
X008917Y020191D01*
X008967Y020241D01*
X008967Y020185D02*
X008917Y020096D01*
X008967Y020185D02*
X008872Y020241D01*
X008367Y020185D02*
X008357Y020225D01*
X007767Y020191D02*
X007701Y020125D01*
X007701Y020066D01*
X007701Y019516D01*
X008267Y019446D02*
X008367Y019496D01*
X008267Y019446D02*
X008267Y018941D01*
X008067Y018741D01*
X008067Y018291D01*
X007934Y018158D01*
X007625Y018208D01*
X007609Y018092D01*
X007609Y017304D01*
X007806Y017304D02*
X007806Y017580D01*
X008267Y018041D01*
X008267Y018541D01*
X008517Y018791D01*
X008776Y018791D01*
X008809Y018874D01*
X008967Y019032D01*
X008967Y019496D01*
X008809Y018933D02*
X008809Y018874D01*
X007092Y019456D02*
X007092Y017766D01*
X007215Y017642D01*
X007215Y017304D01*
X007018Y017304D02*
X007018Y016889D01*
X007117Y016791D01*
X007412Y016995D02*
X008417Y015991D01*
X008417Y014541D01*
X008767Y014191D01*
X008767Y013741D01*
X008767Y013341D02*
X008617Y013191D01*
X008467Y013191D01*
X008396Y013120D01*
X008396Y012777D01*
X008199Y012777D02*
X008199Y013273D01*
X008367Y013491D01*
X007806Y013802D02*
X007667Y013941D01*
X007667Y014391D01*
X007817Y014691D02*
X008002Y014505D01*
X008002Y012777D01*
X007806Y012777D02*
X007806Y013802D01*
X007609Y013699D02*
X007267Y014041D01*
X007267Y014391D01*
X006867Y014391D02*
X006867Y014141D01*
X007412Y013595D01*
X007412Y012777D01*
X007609Y012777D02*
X007609Y013699D01*
X007215Y013492D02*
X006867Y013841D01*
X006417Y013841D01*
X006067Y014191D01*
X006067Y014391D01*
X005767Y014291D02*
X005767Y014191D01*
X006231Y013726D01*
X006231Y012777D01*
X006034Y012777D02*
X006034Y013473D01*
X005667Y013841D01*
X005267Y013841D02*
X005267Y014341D01*
X005256Y014352D01*
X005256Y015080D01*
X005256Y014352D02*
X004853Y014352D01*
X004853Y013958D02*
X004449Y013958D01*
X004267Y014141D01*
X004267Y014265D01*
X004191Y014341D01*
X004287Y013761D02*
X004017Y013491D01*
X004017Y013196D01*
X003922Y013041D02*
X003972Y012991D01*
X003922Y013041D02*
X003617Y013041D01*
X003463Y013194D01*
X003463Y013196D01*
X003443Y013217D01*
X004287Y013761D02*
X004853Y013761D01*
X005187Y013761D01*
X005267Y013841D01*
X004853Y013564D02*
X004640Y013564D01*
X004517Y013441D01*
X004517Y013135D01*
X004661Y012991D01*
X005267Y012991D01*
X005640Y012777D02*
X005640Y012564D01*
X005617Y012541D01*
X002217Y012541D01*
X005640Y012664D02*
X005640Y012777D01*
X005837Y012777D02*
X005837Y013170D01*
X005667Y013341D01*
X006567Y013191D02*
X006567Y013541D01*
X006567Y013191D02*
X006625Y013133D01*
X006625Y012777D01*
X007018Y012777D02*
X007018Y013239D01*
X006917Y013341D01*
X007215Y013492D02*
X007215Y012777D01*
X008593Y012777D02*
X008703Y012777D01*
X008867Y012941D01*
X009267Y012541D01*
X011517Y012541D01*
X011767Y012791D01*
X011767Y012941D01*
X012117Y012941D01*
X012167Y012991D01*
X013767Y012991D01*
X014017Y013241D01*
X014017Y013691D01*
X014012Y013691D01*
X013712Y013991D01*
X013617Y014086D01*
X013617Y014191D01*
X013817Y014191D01*
X013967Y014341D01*
X014067Y014341D01*
X013925Y014721D02*
X013142Y014721D01*
X013167Y014696D01*
X012917Y014341D02*
X012767Y014491D01*
X012767Y014891D01*
X012067Y015591D01*
X012067Y016291D01*
X012267Y016491D01*
X012462Y016491D01*
X012512Y016386D01*
X012467Y016341D01*
X012462Y016441D02*
X012462Y016491D01*
X012517Y016641D01*
X012817Y016791D02*
X012917Y016891D01*
X013867Y016891D01*
X013925Y016833D01*
X013925Y016660D01*
X014121Y016660D01*
X014318Y016660D01*
X014515Y016660D01*
X014712Y016660D01*
X014909Y016660D01*
X014909Y016189D01*
X014917Y016181D01*
X015187Y016181D01*
X015189Y016183D01*
X015189Y015986D01*
X015189Y016183D02*
X015025Y016183D01*
X015189Y016380D02*
X015428Y016380D01*
X015667Y016141D01*
X016417Y016056D02*
X016417Y015591D01*
X016517Y015491D01*
X016771Y015491D01*
X017117Y015191D02*
X016967Y015041D01*
X016067Y015041D01*
X015587Y014561D01*
X015587Y015421D01*
X015415Y015592D01*
X015189Y015592D01*
X015189Y015395D02*
X014912Y015395D01*
X014817Y015491D01*
X014817Y015691D01*
X014915Y015789D01*
X015189Y015789D01*
X015618Y015789D01*
X015667Y015741D01*
X015867Y015741D01*
X016062Y015545D01*
X016062Y015491D01*
X015189Y015395D02*
X015189Y015199D01*
X015189Y015002D01*
X015200Y014991D01*
X016467Y014591D02*
X016467Y014260D01*
X016442Y014235D01*
X016417Y014260D01*
X016467Y014591D02*
X016617Y014741D01*
X017067Y014741D01*
X017042Y014716D01*
X017042Y014486D01*
X017067Y014741D02*
X017517Y015191D01*
X017917Y015191D01*
X018417Y015791D02*
X018117Y016091D01*
X017367Y016091D01*
X017367Y016384D01*
X017377Y016394D01*
X017367Y016091D02*
X017117Y015841D01*
X017117Y015191D01*
X018417Y015791D02*
X018417Y013691D01*
X017917Y013191D01*
X018417Y013391D02*
X018417Y012941D01*
X018217Y012741D01*
X016667Y012741D01*
X016467Y012941D01*
X016460Y012541D02*
X018717Y012541D01*
X018917Y012741D01*
X018917Y013191D01*
X018417Y013391D02*
X018917Y013891D01*
X018917Y014191D01*
X017267Y013670D02*
X017267Y013391D01*
X017267Y013670D02*
X017042Y013895D01*
X016717Y013541D02*
X016447Y013541D01*
X016442Y013546D01*
X016717Y013541D02*
X016867Y013391D01*
X013967Y012791D02*
X013851Y012695D01*
X013542Y012695D01*
X013307Y012700D01*
X013042Y012700D01*
X012542Y012700D01*
X012541Y013291D02*
X012267Y013291D01*
X012067Y013491D01*
X012067Y013891D01*
X012293Y014155D02*
X012507Y013941D01*
X012293Y014155D02*
X009380Y014155D01*
X010217Y013891D02*
X010217Y013541D01*
X010267Y013491D01*
X010267Y013290D01*
X009817Y013341D02*
X009817Y012891D01*
X009967Y012741D01*
X011017Y012741D01*
X011217Y012941D01*
X011217Y013240D01*
X011267Y013290D01*
X011717Y013141D02*
X011717Y012991D01*
X011767Y012941D01*
X011767Y013290D01*
X011767Y013441D01*
X011717Y013491D01*
X011717Y013141D02*
X011817Y013041D01*
X011767Y013041D01*
X011817Y012991D01*
X010767Y013290D02*
X010767Y013741D01*
X010617Y013891D01*
X009817Y013341D02*
X009593Y013564D01*
X009380Y013564D01*
X010267Y014691D02*
X010767Y014691D01*
X011267Y014691D01*
X011767Y014691D01*
X011316Y014691D01*
X011267Y014741D01*
X010847Y015271D02*
X009737Y015271D01*
X009621Y015336D01*
X009380Y015336D01*
X009380Y015533D02*
X009665Y015533D01*
X009787Y015461D01*
X010587Y015461D01*
X010867Y015741D01*
X010567Y015991D02*
X010217Y015641D01*
X009857Y015641D01*
X009718Y015730D01*
X009380Y015730D01*
X009743Y016320D02*
X010037Y016096D01*
X009743Y016320D02*
X009380Y016320D01*
X009380Y016517D02*
X008893Y016517D01*
X008717Y016341D01*
X008593Y016464D01*
X008593Y017304D01*
X009380Y016517D02*
X009799Y016517D01*
X010037Y016785D01*
X011296Y016785D01*
X011417Y016665D01*
X011293Y016691D01*
X011667Y016691D01*
X012067Y016291D01*
X012467Y015985D02*
X012472Y015891D01*
X012717Y015941D01*
X012817Y016041D01*
X012817Y016791D01*
X013171Y016491D02*
X013171Y016000D01*
X013161Y015891D01*
X013166Y015986D01*
X013644Y015986D01*
X013644Y015789D01*
X013644Y015592D01*
X013644Y015395D01*
X013644Y015199D01*
X013644Y015002D01*
X013167Y015385D02*
X012722Y015385D01*
X012617Y015491D01*
X012472Y015635D01*
X012472Y015891D01*
X012517Y015946D01*
X011417Y015917D02*
X011243Y016091D01*
X010917Y015341D02*
X010847Y015271D01*
X010912Y015336D02*
X010917Y015341D01*
X012917Y014341D02*
X013467Y014341D01*
X013617Y014191D01*
X013712Y013991D02*
X013717Y013945D01*
X013712Y013991D02*
X013712Y013895D01*
X013717Y013491D02*
X013542Y013316D01*
X013542Y013286D01*
X013042Y013291D02*
X013042Y013806D01*
X013176Y013941D01*
X013167Y013831D01*
X012542Y013291D02*
X012467Y013336D01*
X012541Y013291D02*
X012542Y013291D01*
X013644Y015986D02*
X013644Y016183D01*
X013644Y016380D01*
X016417Y016725D02*
X016479Y016787D01*
X016857Y016787D01*
X016429Y016737D02*
X016417Y016725D01*
X022567Y017191D02*
X023067Y016691D01*
X023867Y016691D01*
X025017Y015541D01*
X025567Y015541D01*
X027767Y013341D01*
X029717Y013341D01*
X029417Y013741D02*
X027867Y013741D01*
X025717Y015891D01*
X025167Y015891D01*
X023867Y017191D01*
X023567Y017191D01*
X023567Y016191D02*
X023867Y016191D01*
X024867Y015191D01*
X025417Y015191D01*
X026567Y014041D01*
X026167Y013991D02*
X026167Y013641D01*
X026467Y013341D01*
X026767Y013341D01*
X026167Y013991D02*
X025317Y014841D01*
X024717Y014841D01*
X023867Y015691D01*
X023067Y015691D01*
X022567Y016191D01*
X026967Y015141D02*
X028017Y014091D01*
X030217Y014091D01*
X032367Y013895D02*
X033117Y013895D01*
X033867Y013895D01*
X033867Y014486D02*
X033867Y015056D01*
X033117Y015056D02*
X033117Y014486D01*
X032367Y014486D02*
X032367Y015056D01*
X032367Y015725D02*
X032367Y016291D01*
X033117Y016291D02*
X033117Y015725D01*
X033867Y015725D02*
X033867Y016291D01*
X039567Y012591D02*
X039567Y012491D01*
X041167Y014486D02*
X041167Y014781D01*
X041042Y014906D01*
X041930Y015028D02*
X041930Y014482D01*
X041929Y014480D01*
X042600Y015028D02*
X042630Y015028D01*
X042867Y014791D01*
X043467Y014791D01*
X043998Y015322D01*
X043998Y015576D01*
X044195Y015576D02*
X044195Y014919D01*
X043767Y014491D01*
X043767Y013991D01*
X044317Y013891D02*
X045267Y012941D01*
X050766Y012941D01*
X050816Y013391D02*
X050766Y013441D01*
X050017Y013441D01*
X048717Y014741D01*
X049017Y015041D02*
X050117Y013941D01*
X050766Y013941D01*
X050766Y014441D02*
X050117Y014441D01*
X050766Y013441D02*
X050967Y013441D01*
X051017Y013391D01*
X050816Y013391D01*
X048067Y014391D02*
X047617Y013941D01*
X047305Y013941D01*
X047267Y013902D01*
X047267Y013541D01*
X047017Y013291D01*
X046253Y013291D01*
X045804Y013740D01*
X045803Y013741D01*
X045217Y013741D01*
X044887Y014071D01*
X044887Y014140D01*
X044786Y014141D01*
X044317Y013891D02*
X044317Y014441D01*
X044317Y014691D01*
X044456Y014830D01*
X044786Y014830D01*
X044827Y014830D01*
X044667Y014991D01*
X044667Y015641D01*
X044490Y015867D01*
X044490Y015871D01*
X044490Y016068D02*
X044689Y016068D01*
X045167Y015591D01*
X045167Y015291D01*
X045467Y014991D01*
X046167Y014991D01*
X046317Y014841D01*
X046317Y014719D01*
X046506Y014530D01*
X046493Y014516D01*
X046493Y013740D01*
X047267Y014591D02*
X047267Y014592D01*
X047267Y014841D01*
X046867Y015241D01*
X045967Y015241D01*
X045840Y015367D01*
X045840Y015714D01*
X045313Y015714D01*
X044762Y016265D01*
X044490Y016265D01*
X044490Y016462D02*
X044945Y016462D01*
X045017Y016391D01*
X045385Y016659D02*
X044490Y016659D01*
X044490Y016856D02*
X045374Y016856D01*
X045573Y017055D01*
X045017Y017141D02*
X044917Y017241D01*
X044467Y017241D01*
X044490Y017264D01*
X044490Y017446D01*
X044490Y017249D01*
X044490Y017052D01*
X044490Y017643D02*
X045079Y017643D01*
X045094Y017628D01*
X044195Y017938D02*
X044195Y018062D01*
X044367Y018191D01*
X044617Y018191D01*
X044817Y018391D01*
X044817Y018750D01*
X044845Y018778D01*
X045304Y018778D01*
X045967Y019441D01*
X045717Y020291D02*
X044767Y019441D01*
X043267Y019441D01*
X042817Y018991D01*
X042817Y017938D01*
X042620Y017938D02*
X042620Y018237D01*
X042517Y018391D01*
X042217Y017938D02*
X042016Y018139D01*
X042217Y017938D02*
X042423Y017938D01*
X042128Y017643D02*
X042126Y017641D01*
X041817Y017641D01*
X041667Y017791D01*
X041667Y018541D01*
X041954Y018828D01*
X042016Y018828D01*
X043014Y018888D02*
X043014Y017938D01*
X043211Y017938D02*
X043211Y018785D01*
X043417Y018991D01*
X043963Y018991D01*
X044176Y018778D01*
X043767Y018441D02*
X043604Y018278D01*
X043604Y017938D01*
X043408Y017938D02*
X043408Y018582D01*
X043517Y018691D01*
X043317Y019191D02*
X045067Y019191D01*
X046317Y020391D01*
X046617Y020741D02*
X046967Y020391D01*
X046617Y020741D02*
X045017Y020741D01*
X044217Y019941D01*
X041717Y019941D01*
X041167Y019391D01*
X041167Y016991D01*
X041499Y016659D01*
X042128Y016659D01*
X042128Y016856D02*
X041652Y016856D01*
X041417Y017091D01*
X041417Y019191D01*
X041917Y019691D01*
X044517Y019691D01*
X045117Y020291D01*
X043317Y019191D02*
X043014Y018888D01*
X042128Y017643D02*
X042128Y017446D01*
X042128Y017249D01*
X042128Y017052D01*
X043014Y017052D01*
X043309Y016757D01*
X043333Y016757D01*
X044067Y017491D01*
X043309Y016757D02*
X042817Y016265D01*
X042128Y016265D01*
X041604Y016265D01*
X041566Y016278D01*
X041897Y015871D02*
X041717Y015691D01*
X041717Y015689D01*
X041566Y015589D01*
X041553Y015575D01*
X041042Y015575D01*
X041897Y015871D02*
X042128Y015871D01*
X043211Y015576D02*
X043211Y015335D01*
X043067Y015191D01*
X043408Y015200D02*
X043407Y015161D01*
X043408Y015232D01*
X043408Y015576D01*
X043408Y015200D01*
X045385Y016659D02*
X045574Y016470D01*
X046263Y016470D02*
X046987Y016470D01*
X046991Y016465D01*
X046991Y016016D01*
X047117Y015891D01*
X047354Y015891D01*
X047354Y015890D01*
X047660Y016465D02*
X047668Y016473D01*
X047668Y016741D01*
X048260Y016741D01*
X048278Y016772D01*
X048186Y016722D01*
X048167Y016741D01*
X047668Y016741D02*
X047668Y017040D01*
X047057Y017118D02*
X047057Y017636D01*
X047057Y017118D02*
X046979Y017040D01*
X046965Y017055D01*
X046262Y017055D01*
X046388Y017636D02*
X045772Y017636D01*
X045764Y017628D01*
X045764Y018137D01*
X045767Y018141D01*
X044845Y018669D02*
X044845Y018778D01*
X048967Y016772D02*
X049498Y016772D01*
X049517Y016791D01*
X048067Y015867D02*
X048043Y015890D01*
X048067Y015867D02*
X048067Y015441D01*
X048067Y014391D01*
X048117Y021641D02*
X048117Y022341D01*
X047917Y022541D01*
X047667Y022541D01*
X046787Y023420D01*
X046787Y025126D01*
X046551Y025126D02*
X046551Y025665D01*
X046627Y025741D01*
X046627Y025781D01*
X046567Y025841D01*
X046567Y027641D01*
X046667Y027741D01*
X046667Y028352D01*
X046669Y028355D01*
X046669Y028941D01*
X044543Y028941D01*
X044543Y028355D01*
X044307Y028355D02*
X044307Y026281D01*
X044067Y026041D01*
X043667Y026041D02*
X044071Y026445D01*
X044071Y028355D01*
X043834Y028355D02*
X043834Y028941D01*
X044543Y028941D01*
X043834Y028941D02*
X043126Y028941D01*
X043126Y028355D01*
X043362Y028355D02*
X043362Y027886D01*
X043217Y027741D01*
X043598Y027809D02*
X043717Y027691D01*
X043598Y027809D02*
X043598Y028355D01*
X043126Y028941D02*
X042417Y028941D01*
X042417Y028355D01*
X042653Y028355D02*
X042653Y027854D01*
X042667Y027841D01*
X042667Y027741D01*
X041708Y028355D02*
X041708Y028941D01*
X042417Y028941D01*
X041708Y028941D02*
X041000Y028941D01*
X041000Y028355D01*
X040764Y028355D02*
X040764Y026137D01*
X040717Y026091D01*
X040882Y025741D02*
X040173Y025741D01*
X040173Y025126D01*
X039937Y025126D02*
X039937Y024671D01*
X040217Y024391D01*
X040217Y024150D01*
X040292Y024125D01*
X039701Y024134D02*
X039692Y024125D01*
X039701Y024134D02*
X039701Y025126D01*
X039464Y025126D02*
X039464Y025741D01*
X038756Y025741D01*
X038756Y025126D01*
X039228Y025126D02*
X039228Y023129D01*
X040217Y022141D01*
X047767Y022141D01*
X047942Y022966D02*
X047517Y023391D01*
X047496Y023411D01*
X047496Y025126D01*
X047732Y025126D02*
X047732Y023775D01*
X047817Y023691D01*
X047942Y023566D01*
X048232Y023566D01*
X048167Y023941D02*
X048717Y023941D01*
X048867Y023791D01*
X048867Y023600D01*
X048901Y023566D01*
X048901Y022966D01*
X048232Y022966D02*
X047942Y022966D01*
X048167Y023941D02*
X047968Y024139D01*
X047968Y025126D01*
X047968Y025739D01*
X047967Y025741D01*
X047267Y025741D01*
X047260Y025734D01*
X047260Y025126D01*
X046315Y025126D02*
X046315Y024352D01*
X046401Y024266D01*
X046401Y023716D01*
X045732Y023716D02*
X045732Y023706D01*
X045367Y023341D01*
X043967Y023341D01*
X043817Y023491D01*
X043817Y023700D01*
X043832Y023716D01*
X043807Y023691D01*
X043317Y023691D01*
X043008Y024000D01*
X043008Y025126D01*
X043008Y025741D01*
X042299Y025741D01*
X042299Y025126D01*
X042535Y025126D02*
X042535Y024609D01*
X042267Y024341D01*
X041217Y024341D02*
X041118Y024439D01*
X041118Y025126D01*
X040882Y025126D02*
X040882Y023706D01*
X040632Y023456D01*
X040292Y023456D01*
X039692Y023456D01*
X040882Y025126D02*
X040882Y025741D01*
X041590Y025741D01*
X041590Y025126D01*
X041590Y025741D02*
X042299Y025741D01*
X043008Y025741D02*
X043716Y025741D01*
X044425Y025741D01*
X044425Y025126D01*
X044661Y025126D02*
X044661Y024395D01*
X044532Y024266D01*
X044532Y023746D01*
X044501Y023716D01*
X045201Y024266D02*
X045732Y024266D01*
X045217Y024281D02*
X045201Y024266D01*
X045217Y024281D02*
X045217Y024991D01*
X044667Y025132D02*
X044667Y025591D01*
X044779Y025703D01*
X044779Y028355D01*
X046433Y028355D02*
X046433Y027857D01*
X046315Y027739D01*
X046315Y025126D01*
X046551Y025725D02*
X046627Y025741D01*
X047267Y025741D01*
X047517Y026291D02*
X047614Y026388D01*
X047614Y028355D01*
X047614Y028938D01*
X047767Y029091D01*
X048086Y029271D02*
X048086Y028355D01*
X048086Y027871D01*
X048167Y027791D01*
X048717Y027791D01*
X048795Y027869D01*
X048795Y028355D01*
X048795Y028941D01*
X049504Y028941D01*
X049504Y028355D01*
X049740Y028355D02*
X049740Y027364D01*
X049667Y027291D01*
X049976Y027200D02*
X049967Y026991D01*
X049976Y027200D02*
X049976Y028355D01*
X050212Y028355D02*
X050212Y028941D01*
X050917Y028941D01*
X050917Y028355D01*
X050921Y028355D01*
X050921Y025795D01*
X050867Y025741D01*
X050567Y026991D02*
X050685Y027109D01*
X050685Y028355D01*
X050212Y028941D02*
X049504Y028941D01*
X048417Y029091D02*
X048323Y028985D01*
X048323Y028355D01*
X047850Y028355D02*
X047850Y026057D01*
X047867Y026091D01*
X047217Y026541D02*
X047141Y026616D01*
X047141Y028355D01*
X047141Y029516D01*
X047017Y029641D01*
X046717Y029291D02*
X046905Y029102D01*
X046905Y028355D01*
X046905Y026252D01*
X046917Y026241D01*
X044667Y025132D02*
X044661Y025126D01*
X044189Y025126D02*
X044189Y024663D01*
X043867Y024341D01*
X043467Y024341D01*
X043716Y025126D02*
X043716Y025741D01*
X040527Y026601D02*
X040267Y026341D01*
X040267Y026091D01*
X040173Y025741D02*
X039464Y025741D01*
X039817Y026091D02*
X039817Y026341D01*
X040055Y026579D01*
X040055Y028355D01*
X040291Y028355D02*
X040291Y028941D01*
X041000Y028941D01*
X040291Y028941D02*
X039582Y028941D01*
X039582Y028355D01*
X038874Y028355D02*
X038874Y028941D01*
X039582Y028941D01*
X038874Y028941D02*
X038165Y028941D01*
X038165Y028355D01*
X037456Y028355D02*
X037456Y028941D01*
X038165Y028941D01*
X037456Y028941D02*
X036748Y028941D01*
X036748Y028355D01*
X036748Y028941D02*
X036039Y028941D01*
X036039Y028355D01*
X035330Y028355D02*
X035330Y028941D01*
X036039Y028941D01*
X035330Y028941D02*
X034622Y028941D01*
X034622Y028355D01*
X033913Y028355D02*
X033913Y028941D01*
X034622Y028941D01*
X033913Y028941D02*
X033204Y028941D01*
X033204Y028355D01*
X032496Y028355D02*
X032496Y028941D01*
X033204Y028941D01*
X032496Y028941D02*
X031787Y028941D01*
X031787Y028355D01*
X031787Y028941D02*
X031078Y028941D01*
X031078Y028355D01*
X030370Y028355D02*
X030370Y028941D01*
X031078Y028941D01*
X030370Y028941D02*
X029661Y028941D01*
X029661Y028355D01*
X029897Y028355D02*
X029897Y027560D01*
X030267Y027191D01*
X032117Y027191D01*
X032817Y026491D01*
X033086Y025741D02*
X032378Y025741D01*
X032378Y025126D01*
X033086Y025126D02*
X033086Y025741D01*
X033795Y025741D01*
X033795Y025126D01*
X033795Y025741D02*
X035212Y025741D01*
X035212Y025126D01*
X035921Y025126D02*
X035921Y025741D01*
X035212Y025741D01*
X035921Y025741D02*
X036630Y025741D01*
X036630Y025126D01*
X037338Y025126D02*
X037338Y025741D01*
X036630Y025741D01*
X037338Y025741D02*
X038047Y025741D01*
X038047Y025126D01*
X038047Y025741D02*
X038756Y025741D01*
X040527Y026601D02*
X040527Y028355D01*
X047378Y028355D02*
X047378Y029202D01*
X047617Y029441D01*
X047917Y029441D01*
X048086Y029271D01*
X032317Y027441D02*
X030367Y027441D01*
X030134Y027674D01*
X030134Y028355D01*
X029661Y028941D02*
X028244Y028941D01*
X028244Y028355D01*
X028008Y028355D02*
X027771Y028355D01*
X027767Y028350D01*
X027535Y028355D02*
X027535Y028941D01*
X028244Y028941D01*
X027535Y028941D02*
X026590Y028941D01*
X026517Y028941D01*
X026367Y029091D01*
X026590Y028941D02*
X026590Y028355D01*
X026817Y028345D02*
X026817Y027841D01*
X026767Y027791D01*
X026417Y027791D01*
X026354Y027853D01*
X026354Y028355D01*
X026131Y028355D01*
X026117Y028341D01*
X026117Y027441D01*
X025917Y027241D01*
X026367Y026791D01*
X026367Y025691D01*
X026236Y025560D01*
X026236Y025126D01*
X026000Y025126D01*
X026472Y025126D02*
X026472Y024596D01*
X026417Y024541D01*
X024917Y024541D01*
X024767Y024691D01*
X026417Y024541D02*
X027467Y024541D01*
X027417Y024590D01*
X027417Y025126D01*
X027181Y025126D02*
X026945Y025126D01*
X026708Y025126D01*
X026708Y025549D01*
X026567Y025691D01*
X026367Y025691D01*
X027653Y025126D02*
X027890Y025126D01*
X028117Y025117D02*
X028117Y024641D01*
X028017Y024541D01*
X027467Y024541D01*
X028117Y025117D02*
X028126Y025126D01*
X028126Y025741D01*
X029543Y025741D01*
X029543Y025126D01*
X029779Y025126D02*
X029779Y025703D01*
X029817Y025741D01*
X029543Y025741D01*
X029817Y025741D02*
X030252Y025741D01*
X030252Y025126D01*
X030252Y025741D02*
X031669Y025741D01*
X031669Y025126D01*
X031669Y025741D02*
X032378Y025741D01*
X027299Y028355D02*
X027063Y028355D01*
X026827Y028355D01*
X026817Y028345D01*
X026354Y028355D02*
X026118Y028355D01*
X009117Y027692D02*
X008888Y027721D01*
X008217Y027741D02*
X008197Y027721D01*
X008157Y027721D01*
X007967Y027721D02*
X007767Y027721D01*
X007567Y027721D01*
X007417Y027191D02*
X007417Y027141D01*
X007767Y027141D01*
X007517Y026941D01*
X007567Y026891D01*
X007567Y026561D01*
X007567Y026117D01*
X007517Y026067D01*
X007643Y025891D01*
X007505Y025753D01*
X007443Y025691D01*
X006817Y025691D01*
X006372Y026135D01*
X006372Y026141D01*
X007061Y026141D02*
X007377Y026456D01*
X007377Y026561D01*
X007767Y026561D02*
X007937Y026561D01*
X007967Y026591D01*
X007967Y026341D01*
X008441Y025867D01*
X008391Y025891D01*
X008217Y026541D02*
X008197Y026561D01*
X008157Y026561D01*
X007967Y026561D02*
X007767Y026561D01*
X008888Y026561D02*
X009117Y026589D01*
X008167Y029291D02*
X007972Y029291D01*
X007967Y029285D01*
X001417Y026741D02*
X001367Y026741D01*
X000917Y026291D01*
X000917Y022791D01*
X000667Y022541D01*
X000667Y021041D01*
X000917Y020791D01*
X000917Y015941D01*
X001417Y017191D02*
X001967Y017741D01*
X005267Y017741D01*
X005417Y017891D01*
X005867Y017891D01*
X006034Y017723D01*
X006034Y017304D01*
X006231Y017304D02*
X006231Y016855D01*
X006117Y016741D01*
X004817Y016741D01*
X004717Y016841D01*
X004853Y016517D02*
X004540Y016517D01*
X004417Y016641D01*
X004244Y016123D02*
X004017Y015896D01*
X003611Y015896D01*
X003517Y015991D01*
X003517Y016591D01*
X003317Y017241D02*
X002767Y016691D01*
X002867Y017191D02*
X002417Y017191D01*
X002867Y017191D02*
X003167Y017491D01*
X005317Y017491D01*
X005517Y017691D01*
X005767Y017691D01*
X005837Y017620D01*
X005837Y017304D01*
X005640Y017304D02*
X005577Y017241D01*
X003317Y017241D01*
X004244Y016123D02*
X004853Y016123D01*
X004017Y015896D02*
X003811Y015896D01*
X005627Y017291D02*
X005640Y017304D01*
X005117Y017991D02*
X001567Y017991D01*
X001417Y017841D01*
X003167Y018391D02*
X003167Y018741D01*
X003367Y018941D01*
X004267Y018941D01*
X004792Y019466D01*
X004792Y019617D01*
X004917Y019091D02*
X004817Y018991D01*
X004817Y018495D01*
X004821Y018491D01*
X005317Y018191D02*
X005117Y017991D01*
X005317Y018191D02*
X005317Y019141D01*
X005661Y019485D01*
X005717Y019485D01*
X005717Y019891D01*
X005817Y019991D01*
X005467Y020341D02*
X005443Y020365D01*
X004792Y020365D01*
X005667Y021406D02*
X005932Y021406D01*
X006267Y021741D01*
X006867Y021441D02*
X007367Y021941D01*
X008117Y021941D01*
X008632Y021425D01*
X008942Y021425D01*
X008167Y022891D02*
X008167Y023241D01*
X008517Y023591D01*
X005717Y023141D02*
X005717Y023091D01*
X005517Y022891D01*
X005517Y022225D01*
X005667Y022075D01*
X005582Y022075D01*
X005092Y021816D02*
X005067Y021841D01*
X007032Y020066D02*
X007182Y020206D01*
X007032Y020066D02*
X007032Y019516D01*
X007092Y019456D01*
X005717Y018796D02*
X005717Y018541D01*
X005817Y018441D01*
X004112Y018491D02*
X003767Y018491D01*
X003567Y018291D01*
X007412Y017304D02*
X007412Y016995D01*
X007817Y014691D02*
X006567Y014691D01*
X006467Y014591D01*
X006467Y014391D01*
X005767Y014291D02*
X005667Y014391D01*
X001487Y022521D02*
X001527Y022611D01*
D51*
X003887Y021991D03*
X004417Y021991D03*
X005067Y021841D03*
X001517Y020041D03*
X008017Y015841D03*
X005467Y015291D03*
X008967Y025841D03*
X004417Y026091D03*
X004317Y027041D03*
X005167Y028741D03*
X024767Y024691D03*
X025917Y027241D03*
X028017Y027141D03*
X026367Y029091D03*
D52*
X017020Y016787D02*
X016857Y016787D01*
X017020Y016787D02*
X017217Y016591D01*
X017377Y016591D01*
X018617Y016591D01*
X018917Y016291D01*
X018917Y015191D01*
X017067Y016291D02*
X017067Y016491D01*
X016967Y016591D01*
X016857Y016591D01*
X017067Y016291D02*
X016917Y016141D01*
X016501Y016141D01*
X016417Y016056D01*
X016442Y014235D02*
X016292Y014085D01*
X015617Y014085D01*
X015611Y014091D01*
X014922Y014091D02*
X014917Y014085D01*
X014421Y013991D02*
X014421Y013641D01*
X014514Y013548D01*
X014530Y013548D02*
X014417Y013435D01*
X014421Y013439D01*
X014421Y013641D01*
X014417Y012746D02*
X014917Y012746D01*
X014922Y012641D01*
X014927Y012745D01*
X015597Y012755D02*
X015611Y012641D01*
X016436Y013391D02*
X016442Y013546D01*
D53*
X016867Y013391D03*
X017267Y013391D03*
X016467Y012941D03*
X013967Y012791D03*
X013717Y013491D03*
X014067Y014341D03*
X015587Y014561D03*
X015667Y015741D03*
X015667Y016141D03*
X012617Y015491D03*
X010917Y015341D03*
X010867Y015741D03*
X010567Y015991D03*
X010517Y016441D03*
X008717Y016341D03*
X007117Y016791D03*
X005817Y015691D03*
X005667Y014391D03*
X006067Y014391D03*
X006467Y014391D03*
X006867Y014391D03*
X007267Y014391D03*
X007667Y014391D03*
X008767Y013741D03*
X008767Y013341D03*
X008367Y013491D03*
X008867Y012941D03*
X010217Y013891D03*
X010617Y013891D03*
X012067Y013891D03*
X012117Y012941D03*
X006917Y013341D03*
X006567Y013541D03*
X005667Y013341D03*
X005667Y013841D03*
X005267Y012991D03*
X003167Y015391D03*
X003517Y016591D03*
X004717Y016841D03*
X003567Y018291D03*
X003167Y018391D03*
X001417Y017841D03*
X004917Y019091D03*
X005817Y018441D03*
X005817Y019991D03*
X005467Y020341D03*
X006067Y021041D03*
X006367Y021341D03*
X006867Y020691D03*
X008567Y021991D03*
X008167Y022891D03*
X008517Y023591D03*
X005827Y022541D03*
X002067Y026491D03*
X001417Y026741D03*
X001917Y027091D03*
X009517Y018291D03*
X026567Y014041D03*
X026767Y013341D03*
X026967Y015141D03*
X028667Y014941D03*
X029467Y015491D03*
X030217Y014091D03*
X029417Y013741D03*
X029717Y013341D03*
X032367Y016291D03*
X033117Y016291D03*
X033867Y016291D03*
X029467Y019791D03*
X040367Y022791D03*
X041217Y024341D03*
X042267Y024341D03*
X043467Y024341D03*
X045217Y024991D03*
X044425Y025741D03*
X044067Y026041D03*
X043667Y026041D03*
X043717Y027691D03*
X043217Y027741D03*
X042667Y027741D03*
X040717Y026091D03*
X040267Y026091D03*
X039817Y026091D03*
X046627Y025741D03*
X046917Y026241D03*
X047217Y026541D03*
X047517Y026291D03*
X047867Y026091D03*
X049667Y027291D03*
X049967Y026991D03*
X050567Y026991D03*
X048417Y029091D03*
X047767Y029091D03*
X047017Y029641D03*
X046717Y029291D03*
X047817Y023691D03*
X047517Y023391D03*
X047767Y022141D03*
X048117Y021641D03*
X048117Y021141D03*
X046967Y020391D03*
X046317Y020391D03*
X045717Y020291D03*
X045117Y020291D03*
X044467Y020691D03*
X045967Y019441D03*
X045767Y018141D03*
X045017Y017141D03*
X044067Y017491D03*
X044367Y018191D03*
X043767Y018441D03*
X043517Y018691D03*
X042517Y018391D03*
X042017Y019191D03*
X045017Y016391D03*
X044667Y015641D03*
X043407Y015161D03*
X043067Y015191D03*
X041967Y015491D03*
X043767Y013991D03*
X044317Y014441D03*
X048067Y015441D03*
X048717Y014741D03*
X049017Y015041D03*
X050117Y014441D03*
X050267Y019641D03*
X032817Y026491D03*
X032317Y027441D03*
D54*
X028017Y027141D02*
X027890Y027013D01*
X027890Y025126D01*
X028017Y027141D02*
X028008Y027150D01*
X028008Y028355D01*
X040292Y023456D02*
X040292Y022866D01*
X040367Y022791D01*
X041467Y020591D02*
X040467Y019591D01*
X040467Y017841D01*
X039817Y017191D01*
X031167Y017191D01*
X029467Y015491D01*
X028317Y015491D01*
X026867Y016941D01*
X025567Y016941D01*
X024167Y018341D01*
X024167Y019789D01*
X024168Y019791D01*
X030217Y014091D02*
X030217Y012491D01*
X033817Y012491D02*
X033867Y012541D01*
X033867Y013895D01*
X036767Y015191D02*
X036967Y015391D01*
X038467Y015391D01*
X038867Y015791D01*
X040826Y015791D01*
X040817Y015800D01*
X040817Y019491D01*
X041567Y020241D01*
X044017Y020241D01*
X044467Y020691D01*
X044367Y021141D02*
X043817Y020591D01*
X041467Y020591D01*
X042016Y019190D02*
X042017Y019191D01*
X042016Y019190D02*
X042016Y018828D01*
X044367Y021141D02*
X048117Y021141D01*
X050267Y019641D02*
X052567Y019641D01*
X052567Y025041D01*
X051867Y025741D01*
X050867Y025741D01*
X047967Y025741D01*
X041967Y015491D02*
X041664Y015491D01*
X041566Y015589D01*
X041042Y015575D02*
X040826Y015791D01*
X039567Y015191D02*
X039567Y012591D01*
X041067Y012491D02*
X041167Y012591D01*
X041167Y013895D01*
X041924Y013895D01*
X041929Y013890D01*
X052167Y014441D02*
X052167Y014441D01*
X016486Y014191D02*
X016442Y014235D01*
X014417Y012746D02*
X014011Y012746D01*
X013967Y012791D01*
X011267Y014691D02*
X011267Y015767D01*
X011417Y015917D01*
X011243Y016091D02*
X011067Y016091D01*
X010717Y016441D01*
X010517Y016441D01*
X010122Y016046D01*
X010037Y016096D01*
X009517Y018291D02*
X009517Y019941D01*
X009267Y020191D01*
X008972Y020191D01*
X008967Y020185D01*
X008872Y020185D02*
X008367Y020185D01*
X008328Y020185D01*
X008322Y020191D01*
X007826Y020191D01*
X007701Y020066D01*
X008567Y021991D02*
X008567Y022941D01*
X008867Y023241D01*
X009140Y023241D01*
X009183Y023284D01*
X007991Y024491D02*
X007917Y024417D01*
X006267Y024756D02*
X006187Y024626D01*
X006187Y024211D01*
X005717Y023691D02*
X005717Y025607D01*
X005383Y025791D01*
X005667Y025657D01*
X005967Y025741D02*
X005967Y026441D01*
X005767Y026641D01*
X005067Y026641D01*
X004567Y026141D01*
X004467Y026141D01*
X004417Y026091D01*
X003301Y025124D02*
X003251Y024424D01*
X003217Y024391D01*
X005717Y023691D02*
X005937Y023471D01*
X006187Y023471D01*
X006267Y025425D02*
X006217Y025475D01*
X006217Y025491D01*
X005967Y025741D01*
X006282Y025525D02*
X006267Y025425D01*
X008391Y025891D02*
X008441Y025841D01*
X007767Y027721D02*
X007767Y028041D01*
X006296Y028141D02*
X006096Y028341D01*
X007967Y029285D02*
X008072Y029285D01*
X008161Y029285D02*
X008167Y029291D01*
X001917Y027091D02*
X001917Y026641D01*
X002067Y026491D01*
X003817Y020550D02*
X004002Y020365D01*
X004792Y020365D01*
X003443Y014341D02*
X003443Y013217D01*
X003417Y013191D01*
X002417Y013191D01*
D55*
X005467Y015291D02*
X007467Y015291D01*
X008017Y015841D01*
X001517Y020041D02*
X001517Y020741D01*
X000967Y021291D01*
X000967Y022341D01*
X001217Y022591D01*
X001567Y022591D01*
X001487Y022511D01*
X001487Y022521D01*
X001532Y022567D01*
X001527Y022611D02*
X001567Y022701D01*
X001567Y023041D01*
X001267Y023441D01*
X001267Y024741D01*
X001417Y024891D01*
X002517Y024891D01*
X002967Y025341D01*
X002967Y026491D01*
X003067Y026591D01*
X004517Y026591D01*
X006096Y028170D01*
X006096Y028341D01*
X006217Y028141D02*
X006417Y028341D01*
X006717Y028341D01*
X006717Y027441D01*
X007017Y027141D01*
X007767Y027141D01*
X008217Y027741D02*
X009068Y027741D01*
X009117Y027692D01*
X008417Y028291D02*
X008267Y028141D01*
X007867Y028141D01*
X007767Y028041D01*
X008417Y028291D02*
X008417Y029141D01*
X008272Y029285D01*
X008161Y029285D01*
X007967Y029285D02*
X007317Y029285D01*
X004311Y029285D01*
X003717Y028691D01*
X003717Y028441D01*
X003217Y027941D01*
X003217Y027341D01*
X002467Y026591D01*
X002467Y026191D01*
X002417Y026141D01*
X002417Y025791D01*
X002367Y025741D01*
X002083Y025741D01*
X002067Y025757D01*
X001933Y025807D01*
X003301Y025124D02*
X003567Y025391D01*
X003567Y025557D01*
X003651Y025791D01*
X003301Y025124D02*
X003301Y024391D01*
X003451Y024191D01*
X003917Y024191D01*
X004417Y023691D01*
X005167Y023691D01*
X005717Y023141D01*
X006517Y023141D01*
X006817Y023441D01*
X007767Y023441D01*
X008267Y023941D01*
X008667Y023941D01*
X009017Y024241D01*
X009017Y024591D01*
X007917Y024417D02*
X007917Y024091D01*
X007667Y023841D01*
X007047Y023841D01*
X005217Y022991D02*
X005217Y021991D01*
X005067Y021841D01*
X004817Y022338D02*
X004619Y022338D01*
X005217Y022991D02*
X004964Y023243D01*
X004817Y023243D01*
X004035Y023243D01*
X003967Y023175D01*
X003117Y023175D01*
X003101Y023191D01*
X002867Y023191D01*
X002417Y023641D01*
X002417Y023674D01*
X002067Y024024D01*
X002051Y023891D01*
X002067Y023891D01*
X002067Y024024D02*
X001867Y023841D01*
X003217Y024391D02*
X003301Y024391D01*
X003267Y024391D01*
X004417Y024991D02*
X004417Y026091D01*
X004317Y027041D02*
X004317Y027852D01*
X003889Y028280D01*
X003737Y028141D01*
X003717Y028161D01*
X003717Y028441D01*
X003737Y028141D02*
X003967Y027911D01*
X005167Y028741D02*
X005517Y028741D01*
X005767Y028491D01*
X005767Y027891D01*
X006046Y027891D01*
X006296Y028141D01*
X006517Y028141D01*
X006967Y028591D01*
X007311Y028591D01*
X007317Y028596D01*
X007967Y028596D01*
X009017Y029241D02*
X008467Y029791D01*
X003867Y029791D01*
X002417Y028341D01*
X002417Y027341D01*
X002067Y027691D01*
X001767Y027691D01*
X001417Y027341D01*
X001417Y028341D01*
X006217Y028141D02*
X006296Y028141D01*
X006267Y028111D01*
X008217Y026541D02*
X008868Y026541D01*
X008888Y026561D01*
X005033Y024391D02*
X004983Y024424D01*
X004417Y024991D01*
X003017Y022567D02*
X003117Y022506D01*
X022017Y026791D02*
X022017Y013341D01*
X022167Y013191D01*
X022567Y013191D01*
X023017Y013191D01*
X023067Y013241D01*
X023067Y013191D01*
X023567Y013191D01*
X023067Y013191D02*
X023067Y012841D01*
X023417Y012491D01*
X030217Y012491D01*
X033817Y012491D01*
X039567Y012491D01*
X041067Y012491D01*
X051967Y012491D01*
X052167Y012691D01*
X052167Y012941D01*
X052167Y013441D01*
X052167Y013941D01*
X052167Y014441D01*
X052167Y015091D01*
X052617Y015541D01*
X052617Y019591D01*
X052567Y019641D01*
X040067Y015191D02*
X039567Y015191D01*
X039067Y015191D01*
X036767Y015191D02*
X036767Y013500D01*
X037101Y013166D01*
X037092Y013166D01*
X036767Y015191D02*
X035167Y016791D01*
X032017Y016791D01*
X030167Y014941D01*
X028667Y014941D01*
X027967Y014941D01*
X026467Y016441D01*
X025267Y016441D01*
X022467Y019241D01*
X022467Y026291D01*
X023067Y026891D01*
X023067Y028841D01*
X022567Y029341D01*
X023567Y029341D02*
X024167Y028741D01*
X024167Y025591D01*
X023417Y024841D01*
X023243Y024841D01*
X023192Y024789D01*
X023192Y020764D01*
X024167Y019789D01*
X024168Y019789D02*
X024867Y019791D01*
X029467Y019791D01*
X029465Y019789D01*
X024168Y019791D02*
X024168Y019789D01*
X023192Y025892D02*
X023567Y026267D01*
X023567Y027341D01*
X022567Y027341D02*
X022017Y026791D01*
D56*
X016853Y016394D02*
X015920Y016394D01*
X015667Y016141D01*
X015617Y014085D02*
X015617Y013791D01*
X015702Y013706D01*
X015925Y013706D01*
X015925Y013391D02*
X016286Y013391D01*
X016442Y013546D01*
X016544Y013233D02*
X015925Y013233D01*
X015925Y013076D02*
X016112Y013076D01*
X016147Y013041D01*
X016147Y012854D01*
X016460Y012541D01*
X016797Y012981D02*
X017707Y012981D01*
X017917Y013191D01*
X016797Y012981D02*
X016544Y013233D01*
X015587Y013141D02*
X015587Y012765D01*
X015611Y012641D01*
X015587Y013141D02*
X015494Y013233D01*
X015208Y013233D01*
X015208Y013076D02*
X015002Y013076D01*
X014927Y013001D01*
X014927Y012745D01*
X015208Y013548D02*
X014530Y013548D01*
X014927Y013791D02*
X014927Y014086D01*
X014922Y014091D01*
X014927Y013791D02*
X015012Y013706D01*
X015208Y013706D01*
D57*
X003817Y019431D02*
X003223Y019431D01*
X002417Y018624D01*
X002417Y020357D02*
X002417Y021391D01*
X002010Y021797D01*
X001550Y021797D01*
X001532Y022567D02*
X003056Y022567D01*
X003117Y022506D01*
X003967Y022506D01*
X003982Y022491D01*
X004267Y022491D01*
X004419Y022338D01*
X004419Y022038D01*
X004417Y021991D01*
X003887Y021991D02*
X003937Y022476D01*
X003967Y022506D01*
X004419Y022338D02*
X004619Y022338D01*
X005067Y021841D02*
X005067Y021461D01*
X004797Y021191D01*
X003967Y021191D01*
X003817Y021041D01*
X003817Y020550D01*
D58*
X007243Y024491D02*
X007243Y025191D01*
X007243Y025491D01*
X007505Y025753D01*
X007991Y025191D02*
X007991Y024491D01*
X007991Y025191D02*
X008267Y025191D01*
X008417Y025341D01*
X008417Y025865D01*
X008391Y025891D01*
X008441Y025867D02*
X008941Y025867D01*
X008967Y025841D01*
M02*
