G75*
%MOIN*%
%OFA0B0*%
%FSLAX24Y24*%
%IPPOS*%
%LPD*%
%AMOC8*
5,1,8,0,0,1.08239X$1,22.5*
%
%ADD10R,0.0789X0.0710*%
%ADD11R,0.0474X0.0513*%
%ADD12R,0.0513X0.0474*%
%ADD13R,0.1821X0.1821*%
%ADD14C,0.0040*%
%ADD15R,0.0630X0.0680*%
%ADD16R,0.0505X0.0493*%
%ADD17R,0.0493X0.0505*%
%ADD18R,0.0395X0.0395*%
%ADD19C,0.0680*%
%ADD20OC8,0.0680*%
%ADD21R,0.0218X0.0867*%
%ADD22R,0.1852X0.1891*%
%ADD23C,0.0316*%
%ADD24C,0.0513*%
%ADD25C,0.0900*%
%ADD26C,0.0700*%
%ADD27R,0.0480X0.1080*%
%ADD28R,0.0887X0.0379*%
%ADD29C,0.1390*%
%ADD30OC8,0.0476*%
%ADD31OC8,0.0358*%
D10*
X002075Y024789D03*
X002075Y025892D03*
D11*
X020814Y015028D03*
X021483Y015028D03*
X023978Y017628D03*
X024647Y017628D03*
X023728Y018778D03*
X023059Y018778D03*
X027115Y022966D03*
X027115Y023566D03*
X027785Y023566D03*
X027785Y022966D03*
X025285Y024266D03*
X024615Y024266D03*
X024085Y024266D03*
X023415Y024266D03*
D12*
X023385Y023716D03*
X022715Y023716D03*
X024615Y023716D03*
X025285Y023716D03*
X019175Y023456D03*
X018575Y023456D03*
X018575Y024125D03*
X019175Y024125D03*
X025271Y017636D03*
X025940Y017636D03*
X025874Y016465D03*
X026544Y016465D03*
X019925Y015575D03*
X019925Y014906D03*
X012750Y015056D03*
X012750Y015725D03*
X012000Y015725D03*
X012000Y015056D03*
X011250Y015056D03*
X011250Y015725D03*
D13*
X022188Y016762D03*
D14*
X021168Y016847D02*
X021164Y016831D01*
X021154Y016817D01*
X021142Y016806D01*
X021126Y016799D01*
X021110Y016797D01*
X020874Y016797D01*
X020864Y016798D01*
X020856Y016802D01*
X020850Y016809D01*
X020846Y016817D01*
X020844Y016826D01*
X020844Y016885D01*
X020844Y016893D01*
X020846Y016901D01*
X020851Y016908D01*
X020858Y016913D01*
X020865Y016915D01*
X020874Y016915D01*
X021110Y016915D01*
X021126Y016912D01*
X021142Y016905D01*
X021154Y016894D01*
X021164Y016880D01*
X021168Y016864D01*
X021168Y016847D01*
X021168Y016865D02*
X020844Y016865D01*
X020848Y016903D02*
X021144Y016903D01*
X021160Y016826D02*
X020844Y016826D01*
X020865Y016718D02*
X020874Y016718D01*
X021110Y016718D01*
X021126Y016715D01*
X021142Y016708D01*
X021154Y016697D01*
X021164Y016683D01*
X021168Y016667D01*
X021168Y016650D01*
X021164Y016634D01*
X021154Y016620D01*
X021142Y016609D01*
X021126Y016602D01*
X021110Y016600D01*
X020874Y016600D01*
X020864Y016601D01*
X020856Y016605D01*
X020850Y016612D01*
X020846Y016620D01*
X020844Y016629D01*
X020844Y016688D01*
X020844Y016696D01*
X020846Y016704D01*
X020851Y016711D01*
X020858Y016716D01*
X020865Y016718D01*
X020851Y016711D02*
X021137Y016711D01*
X021167Y016672D02*
X020844Y016672D01*
X020844Y016634D02*
X021163Y016634D01*
X021126Y016519D02*
X021142Y016512D01*
X021154Y016501D01*
X021164Y016486D01*
X021168Y016470D01*
X021168Y016453D01*
X021164Y016437D01*
X021154Y016423D01*
X021142Y016412D01*
X021126Y016405D01*
X021110Y016403D01*
X020874Y016403D01*
X020864Y016404D01*
X020856Y016408D01*
X020850Y016415D01*
X020846Y016423D01*
X020844Y016432D01*
X020844Y016491D01*
X020844Y016500D01*
X020846Y016507D01*
X020851Y016514D01*
X020858Y016519D01*
X020865Y016521D01*
X020874Y016521D01*
X021110Y016521D01*
X021126Y016519D01*
X021127Y016518D02*
X020857Y016518D01*
X020844Y016480D02*
X021166Y016480D01*
X021165Y016441D02*
X020844Y016441D01*
X020865Y016324D02*
X020874Y016324D01*
X021110Y016324D01*
X021126Y016322D01*
X021142Y016315D01*
X021154Y016304D01*
X021164Y016290D01*
X021168Y016273D01*
X021168Y016257D01*
X021164Y016241D01*
X021154Y016226D01*
X021142Y016215D01*
X021126Y016208D01*
X021110Y016206D01*
X020874Y016206D01*
X020864Y016207D01*
X020856Y016212D01*
X020850Y016218D01*
X020846Y016226D01*
X020844Y016236D01*
X020844Y016295D01*
X020844Y016303D01*
X020846Y016311D01*
X020851Y016317D01*
X020858Y016322D01*
X020865Y016324D01*
X020844Y016287D02*
X021164Y016287D01*
X021166Y016249D02*
X020844Y016249D01*
X020859Y016210D02*
X021130Y016210D01*
X021110Y016127D02*
X021126Y016125D01*
X021142Y016118D01*
X021154Y016107D01*
X021164Y016093D01*
X021168Y016077D01*
X021168Y016060D01*
X021164Y016044D01*
X021154Y016030D01*
X021142Y016019D01*
X021126Y016012D01*
X021110Y016009D01*
X020874Y016009D01*
X020864Y016011D01*
X020856Y016015D01*
X020850Y016021D01*
X020846Y016030D01*
X020844Y016039D01*
X020844Y016098D01*
X020844Y016106D01*
X020846Y016114D01*
X020851Y016120D01*
X020858Y016125D01*
X020865Y016128D01*
X020874Y016127D01*
X021110Y016127D01*
X021162Y016095D02*
X020844Y016095D01*
X020844Y016056D02*
X021167Y016056D01*
X021140Y016018D02*
X020853Y016018D01*
X020865Y015931D02*
X020874Y015930D01*
X021110Y015930D01*
X021126Y015928D01*
X021142Y015921D01*
X021154Y015910D01*
X021164Y015896D01*
X021168Y015880D01*
X021168Y015863D01*
X021164Y015847D01*
X021154Y015833D01*
X021142Y015822D01*
X021126Y015815D01*
X021110Y015812D01*
X020874Y015812D01*
X020864Y015814D01*
X020856Y015818D01*
X020850Y015824D01*
X020846Y015833D01*
X020844Y015842D01*
X020844Y015901D01*
X020844Y015909D01*
X020846Y015917D01*
X020851Y015924D01*
X020858Y015928D01*
X020865Y015931D01*
X020844Y015902D02*
X021160Y015902D01*
X021168Y015864D02*
X020844Y015864D01*
X020849Y015825D02*
X021146Y015825D01*
X021268Y015719D02*
X021282Y015728D01*
X021298Y015733D01*
X021315Y015733D01*
X021331Y015728D01*
X021345Y015719D01*
X021356Y015706D01*
X021363Y015691D01*
X021366Y015674D01*
X021366Y015438D01*
X021364Y015429D01*
X021360Y015421D01*
X021354Y015414D01*
X021345Y015410D01*
X021336Y015409D01*
X021277Y015409D01*
X021269Y015408D01*
X021261Y015411D01*
X021255Y015416D01*
X021250Y015422D01*
X021247Y015430D01*
X021248Y015438D01*
X021248Y015674D01*
X021250Y015691D01*
X021257Y015706D01*
X021268Y015719D01*
X021260Y015710D02*
X021354Y015710D01*
X021366Y015671D02*
X021248Y015671D01*
X021248Y015633D02*
X021366Y015633D01*
X021366Y015594D02*
X021248Y015594D01*
X021248Y015556D02*
X021366Y015556D01*
X021366Y015517D02*
X021248Y015517D01*
X021248Y015479D02*
X021366Y015479D01*
X021366Y015440D02*
X021248Y015440D01*
X021444Y015430D02*
X021444Y015438D01*
X021444Y015674D01*
X021447Y015691D01*
X021454Y015706D01*
X021465Y015719D01*
X021479Y015728D01*
X021495Y015733D01*
X021512Y015733D01*
X021528Y015728D01*
X021542Y015719D01*
X021553Y015706D01*
X021560Y015691D01*
X021563Y015674D01*
X021563Y015438D01*
X021561Y015429D01*
X021557Y015421D01*
X021550Y015414D01*
X021542Y015410D01*
X021533Y015409D01*
X021474Y015409D01*
X021466Y015408D01*
X021458Y015411D01*
X021451Y015416D01*
X021447Y015422D01*
X021444Y015430D01*
X021444Y015440D02*
X021563Y015440D01*
X021563Y015479D02*
X021444Y015479D01*
X021444Y015517D02*
X021563Y015517D01*
X021563Y015556D02*
X021444Y015556D01*
X021444Y015594D02*
X021563Y015594D01*
X021563Y015633D02*
X021444Y015633D01*
X021444Y015671D02*
X021563Y015671D01*
X021550Y015710D02*
X021457Y015710D01*
X021644Y015691D02*
X021651Y015706D01*
X021662Y015719D01*
X021676Y015728D01*
X021692Y015733D01*
X021709Y015733D01*
X021725Y015728D01*
X021739Y015719D01*
X021750Y015706D01*
X021757Y015691D01*
X021759Y015674D01*
X021759Y015438D01*
X021758Y015429D01*
X021754Y015421D01*
X021747Y015414D01*
X021739Y015410D01*
X021730Y015409D01*
X021671Y015409D01*
X021663Y015408D01*
X021655Y015411D01*
X021648Y015416D01*
X021643Y015422D01*
X021641Y015430D01*
X021641Y015438D01*
X021641Y015674D01*
X021644Y015691D01*
X021641Y015671D02*
X021759Y015671D01*
X021759Y015633D02*
X021641Y015633D01*
X021641Y015594D02*
X021759Y015594D01*
X021759Y015556D02*
X021641Y015556D01*
X021641Y015517D02*
X021759Y015517D01*
X021759Y015479D02*
X021641Y015479D01*
X021641Y015440D02*
X021759Y015440D01*
X021838Y015440D02*
X021956Y015440D01*
X021956Y015438D02*
X021955Y015429D01*
X021951Y015421D01*
X021944Y015414D01*
X021936Y015410D01*
X021927Y015409D01*
X021868Y015409D01*
X021860Y015408D01*
X021852Y015411D01*
X021845Y015416D01*
X021840Y015422D01*
X021838Y015430D01*
X021838Y015438D01*
X021838Y015674D01*
X021841Y015691D01*
X021848Y015706D01*
X021859Y015719D01*
X021873Y015728D01*
X021889Y015733D01*
X021906Y015733D01*
X021922Y015728D01*
X021936Y015719D01*
X021947Y015706D01*
X021954Y015691D01*
X021956Y015674D01*
X021956Y015438D01*
X021956Y015479D02*
X021838Y015479D01*
X021838Y015517D02*
X021956Y015517D01*
X021956Y015556D02*
X021838Y015556D01*
X021838Y015594D02*
X021956Y015594D01*
X021956Y015633D02*
X021838Y015633D01*
X021838Y015671D02*
X021956Y015671D01*
X021944Y015710D02*
X021850Y015710D01*
X021747Y015710D02*
X021654Y015710D01*
X022035Y015674D02*
X022035Y015438D01*
X022035Y015430D01*
X022037Y015422D01*
X022042Y015416D01*
X022049Y015411D01*
X022056Y015408D01*
X022065Y015409D01*
X022124Y015409D01*
X022133Y015410D01*
X022141Y015414D01*
X022148Y015421D01*
X022152Y015429D01*
X022153Y015438D01*
X022153Y015674D01*
X022151Y015691D01*
X022144Y015706D01*
X022133Y015719D01*
X022119Y015728D01*
X022102Y015733D01*
X022086Y015733D01*
X022070Y015728D01*
X022055Y015719D01*
X022044Y015706D01*
X022037Y015691D01*
X022035Y015674D01*
X022035Y015671D02*
X022153Y015671D01*
X022153Y015633D02*
X022035Y015633D01*
X022035Y015594D02*
X022153Y015594D01*
X022153Y015556D02*
X022035Y015556D01*
X022035Y015517D02*
X022153Y015517D01*
X022153Y015479D02*
X022035Y015479D01*
X022035Y015440D02*
X022153Y015440D01*
X022232Y015440D02*
X022350Y015440D01*
X022350Y015438D02*
X022349Y015429D01*
X022344Y015421D01*
X022338Y015414D01*
X022330Y015410D01*
X022320Y015409D01*
X022261Y015409D01*
X022253Y015408D01*
X022245Y015411D01*
X022239Y015416D01*
X022234Y015422D01*
X022232Y015430D01*
X022232Y015438D01*
X022232Y015674D01*
X022234Y015691D01*
X022241Y015706D01*
X022252Y015719D01*
X022266Y015728D01*
X022283Y015733D01*
X022299Y015733D01*
X022315Y015728D01*
X022330Y015719D01*
X022341Y015706D01*
X022348Y015691D01*
X022350Y015674D01*
X022350Y015438D01*
X022350Y015479D02*
X022232Y015479D01*
X022232Y015517D02*
X022350Y015517D01*
X022350Y015556D02*
X022232Y015556D01*
X022232Y015594D02*
X022350Y015594D01*
X022350Y015633D02*
X022232Y015633D01*
X022232Y015671D02*
X022350Y015671D01*
X022338Y015710D02*
X022244Y015710D01*
X022141Y015710D02*
X022047Y015710D01*
X022429Y015674D02*
X022429Y015438D01*
X022428Y015430D01*
X022431Y015422D01*
X022436Y015416D01*
X022442Y015411D01*
X022450Y015408D01*
X022458Y015409D01*
X022517Y015409D01*
X022526Y015410D01*
X022535Y015414D01*
X022541Y015421D01*
X022545Y015429D01*
X022547Y015438D01*
X022547Y015674D01*
X022544Y015691D01*
X022537Y015706D01*
X022526Y015719D01*
X022512Y015728D01*
X022496Y015733D01*
X022479Y015733D01*
X022463Y015728D01*
X022449Y015719D01*
X022438Y015706D01*
X022431Y015691D01*
X022429Y015674D01*
X022429Y015671D02*
X022547Y015671D01*
X022547Y015633D02*
X022429Y015633D01*
X022429Y015594D02*
X022547Y015594D01*
X022547Y015556D02*
X022429Y015556D01*
X022429Y015517D02*
X022547Y015517D01*
X022547Y015479D02*
X022429Y015479D01*
X022429Y015440D02*
X022547Y015440D01*
X022626Y015440D02*
X022744Y015440D01*
X022744Y015438D02*
X022742Y015429D01*
X022738Y015421D01*
X022732Y015414D01*
X022723Y015410D01*
X022714Y015409D01*
X022655Y015409D01*
X022647Y015408D01*
X022639Y015411D01*
X022632Y015416D01*
X022628Y015422D01*
X022625Y015430D01*
X022626Y015438D01*
X022626Y015674D01*
X022628Y015691D01*
X022635Y015706D01*
X022646Y015719D01*
X022660Y015728D01*
X022676Y015733D01*
X022693Y015733D01*
X022709Y015728D01*
X022723Y015719D01*
X022734Y015706D01*
X022741Y015691D01*
X022744Y015674D01*
X022744Y015438D01*
X022744Y015479D02*
X022626Y015479D01*
X022626Y015517D02*
X022744Y015517D01*
X022744Y015556D02*
X022626Y015556D01*
X022626Y015594D02*
X022744Y015594D01*
X022744Y015633D02*
X022626Y015633D01*
X022626Y015671D02*
X022744Y015671D01*
X022731Y015710D02*
X022638Y015710D01*
X022535Y015710D02*
X022441Y015710D01*
X022822Y015674D02*
X022822Y015438D01*
X022822Y015430D01*
X022825Y015422D01*
X022829Y015416D01*
X022836Y015411D01*
X022844Y015408D01*
X022852Y015409D01*
X022911Y015409D01*
X022920Y015410D01*
X022928Y015414D01*
X022935Y015421D01*
X022939Y015429D01*
X022941Y015438D01*
X022941Y015674D01*
X022938Y015691D01*
X022931Y015706D01*
X022920Y015719D01*
X022906Y015728D01*
X022890Y015733D01*
X022873Y015733D01*
X022857Y015728D01*
X022843Y015719D01*
X022832Y015706D01*
X022825Y015691D01*
X022822Y015674D01*
X022822Y015671D02*
X022941Y015671D01*
X022941Y015633D02*
X022822Y015633D01*
X022822Y015594D02*
X022941Y015594D01*
X022941Y015556D02*
X022822Y015556D01*
X022822Y015517D02*
X022941Y015517D01*
X022941Y015479D02*
X022822Y015479D01*
X022822Y015440D02*
X022941Y015440D01*
X023019Y015440D02*
X023137Y015440D01*
X023137Y015438D02*
X023136Y015429D01*
X023132Y015421D01*
X023125Y015414D01*
X023117Y015410D01*
X023108Y015409D01*
X023049Y015409D01*
X023041Y015408D01*
X023033Y015411D01*
X023026Y015416D01*
X023021Y015422D01*
X023019Y015430D01*
X023019Y015438D01*
X023019Y015674D01*
X023022Y015691D01*
X023029Y015706D01*
X023040Y015719D01*
X023054Y015728D01*
X023070Y015733D01*
X023087Y015733D01*
X023103Y015728D01*
X023117Y015719D01*
X023128Y015706D01*
X023135Y015691D01*
X023137Y015674D01*
X023137Y015438D01*
X023137Y015479D02*
X023019Y015479D01*
X023019Y015517D02*
X023137Y015517D01*
X023137Y015556D02*
X023019Y015556D01*
X023019Y015594D02*
X023137Y015594D01*
X023137Y015633D02*
X023019Y015633D01*
X023019Y015671D02*
X023137Y015671D01*
X023125Y015710D02*
X023031Y015710D01*
X022928Y015710D02*
X022835Y015710D01*
X023221Y015847D02*
X023217Y015863D01*
X023217Y015880D01*
X023221Y015896D01*
X023231Y015910D01*
X023243Y015921D01*
X023259Y015928D01*
X023275Y015930D01*
X023511Y015930D01*
X023521Y015929D01*
X023529Y015925D01*
X023535Y015918D01*
X023539Y015910D01*
X023541Y015901D01*
X023541Y015842D01*
X023541Y015834D01*
X023539Y015826D01*
X023534Y015819D01*
X023527Y015814D01*
X023520Y015812D01*
X023511Y015812D01*
X023275Y015812D01*
X023259Y015815D01*
X023243Y015822D01*
X023231Y015833D01*
X023221Y015847D01*
X023217Y015864D02*
X023541Y015864D01*
X023541Y015902D02*
X023226Y015902D01*
X023239Y015825D02*
X023538Y015825D01*
X023520Y016009D02*
X023511Y016009D01*
X023275Y016009D01*
X023259Y016012D01*
X023243Y016019D01*
X023231Y016030D01*
X023221Y016044D01*
X023217Y016060D01*
X023217Y016077D01*
X023221Y016093D01*
X023231Y016107D01*
X023243Y016118D01*
X023259Y016125D01*
X023275Y016127D01*
X023511Y016127D01*
X023521Y016126D01*
X023529Y016122D01*
X023535Y016115D01*
X023539Y016107D01*
X023541Y016098D01*
X023541Y016039D01*
X023541Y016030D01*
X023539Y016023D01*
X023534Y016016D01*
X023527Y016011D01*
X023520Y016009D01*
X023535Y016018D02*
X023245Y016018D01*
X023218Y016056D02*
X023541Y016056D01*
X023541Y016095D02*
X023223Y016095D01*
X023259Y016208D02*
X023243Y016215D01*
X023231Y016226D01*
X023221Y016241D01*
X023217Y016257D01*
X023217Y016273D01*
X023221Y016290D01*
X023231Y016304D01*
X023243Y016315D01*
X023259Y016322D01*
X023275Y016324D01*
X023511Y016324D01*
X023521Y016323D01*
X023529Y016318D01*
X023535Y016312D01*
X023539Y016304D01*
X023541Y016295D01*
X023541Y016236D01*
X023541Y016227D01*
X023539Y016219D01*
X023534Y016213D01*
X023527Y016208D01*
X023520Y016206D01*
X023511Y016206D01*
X023275Y016206D01*
X023259Y016208D01*
X023255Y016210D02*
X023530Y016210D01*
X023541Y016249D02*
X023219Y016249D01*
X023221Y016287D02*
X023541Y016287D01*
X023520Y016403D02*
X023511Y016403D01*
X023275Y016403D01*
X023259Y016405D01*
X023243Y016412D01*
X023231Y016423D01*
X023221Y016437D01*
X023217Y016453D01*
X023217Y016470D01*
X023221Y016486D01*
X023231Y016501D01*
X023243Y016512D01*
X023259Y016519D01*
X023275Y016521D01*
X023511Y016521D01*
X023521Y016519D01*
X023529Y016515D01*
X023535Y016509D01*
X023539Y016501D01*
X023541Y016491D01*
X023541Y016432D01*
X023541Y016424D01*
X023539Y016416D01*
X023534Y016410D01*
X023527Y016405D01*
X023520Y016403D01*
X023516Y016403D01*
X023541Y016441D02*
X023220Y016441D01*
X023219Y016480D02*
X023541Y016480D01*
X023523Y016518D02*
X023258Y016518D01*
X023275Y016600D02*
X023259Y016602D01*
X023243Y016609D01*
X023231Y016620D01*
X023221Y016634D01*
X023217Y016650D01*
X023217Y016667D01*
X023221Y016683D01*
X023231Y016697D01*
X023243Y016708D01*
X023259Y016715D01*
X023275Y016718D01*
X023511Y016718D01*
X023521Y016716D01*
X023529Y016712D01*
X023535Y016706D01*
X023539Y016697D01*
X023541Y016688D01*
X023541Y016629D01*
X023541Y016621D01*
X023539Y016613D01*
X023534Y016607D01*
X023527Y016602D01*
X023520Y016599D01*
X023511Y016600D01*
X023275Y016600D01*
X023222Y016634D02*
X023541Y016634D01*
X023541Y016672D02*
X023218Y016672D01*
X023248Y016711D02*
X023530Y016711D01*
X023520Y016796D02*
X023511Y016797D01*
X023275Y016797D01*
X023259Y016799D01*
X023243Y016806D01*
X023231Y016817D01*
X023221Y016831D01*
X023217Y016847D01*
X023217Y016864D01*
X023221Y016880D01*
X023231Y016894D01*
X023243Y016905D01*
X023259Y016912D01*
X023275Y016915D01*
X023511Y016915D01*
X023521Y016913D01*
X023529Y016909D01*
X023535Y016902D01*
X023539Y016894D01*
X023541Y016885D01*
X023541Y016826D01*
X023541Y016818D01*
X023539Y016810D01*
X023534Y016803D01*
X023527Y016799D01*
X023520Y016796D01*
X023541Y016826D02*
X023225Y016826D01*
X023217Y016865D02*
X023541Y016865D01*
X023535Y016903D02*
X023241Y016903D01*
X023259Y016996D02*
X023243Y017003D01*
X023231Y017014D01*
X023221Y017028D01*
X023217Y017044D01*
X023217Y017061D01*
X023221Y017077D01*
X023231Y017091D01*
X023243Y017102D01*
X023259Y017109D01*
X023275Y017111D01*
X023511Y017111D01*
X023521Y017110D01*
X023529Y017106D01*
X023535Y017099D01*
X023539Y017091D01*
X023541Y017082D01*
X023541Y017023D01*
X023541Y017015D01*
X023539Y017007D01*
X023534Y017000D01*
X023527Y016995D01*
X023520Y016993D01*
X023511Y016993D01*
X023275Y016993D01*
X023259Y016996D01*
X023227Y017019D02*
X023541Y017019D01*
X023541Y017057D02*
X023217Y017057D01*
X023236Y017096D02*
X023537Y017096D01*
X023520Y017190D02*
X023511Y017190D01*
X023275Y017190D01*
X023259Y017193D01*
X023243Y017200D01*
X023231Y017211D01*
X023221Y017225D01*
X023217Y017241D01*
X023217Y017258D01*
X023221Y017274D01*
X023231Y017288D01*
X023539Y017288D01*
X023541Y017279D01*
X023541Y017220D01*
X023541Y017212D01*
X023539Y017204D01*
X023534Y017197D01*
X023527Y017192D01*
X023520Y017190D01*
X023541Y017211D02*
X023230Y017211D01*
X023217Y017250D02*
X023541Y017250D01*
X023539Y017288D02*
X023535Y017296D01*
X023529Y017303D01*
X023521Y017307D01*
X023511Y017308D01*
X023275Y017308D01*
X023259Y017306D01*
X023243Y017299D01*
X023231Y017288D01*
X023259Y017389D02*
X023243Y017396D01*
X023231Y017407D01*
X023221Y017422D01*
X023217Y017438D01*
X023217Y017455D01*
X023221Y017471D01*
X023231Y017485D01*
X023243Y017496D01*
X023259Y017503D01*
X023275Y017505D01*
X023511Y017505D01*
X023521Y017504D01*
X023529Y017500D01*
X023535Y017493D01*
X023539Y017485D01*
X023541Y017476D01*
X023541Y017417D01*
X023541Y017408D01*
X023539Y017401D01*
X023534Y017394D01*
X023527Y017389D01*
X023520Y017387D01*
X023511Y017387D01*
X023275Y017387D01*
X023259Y017389D01*
X023235Y017404D02*
X023540Y017404D01*
X023541Y017442D02*
X023217Y017442D01*
X023228Y017481D02*
X023540Y017481D01*
X023520Y017584D02*
X023511Y017584D01*
X023275Y017584D01*
X023259Y017586D01*
X023243Y017593D01*
X023231Y017604D01*
X023221Y017618D01*
X023217Y017635D01*
X023541Y017635D01*
X023541Y017613D02*
X023541Y017605D01*
X023539Y017597D01*
X023534Y017591D01*
X023527Y017586D01*
X023520Y017584D01*
X023538Y017596D02*
X023240Y017596D01*
X023217Y017635D02*
X023217Y017651D01*
X023221Y017668D01*
X023231Y017682D01*
X023243Y017693D01*
X023259Y017700D01*
X023275Y017702D01*
X023511Y017702D01*
X023521Y017701D01*
X023529Y017696D01*
X023535Y017690D01*
X023539Y017682D01*
X023541Y017673D01*
X023225Y017673D01*
X023117Y017795D02*
X023103Y017786D01*
X023087Y017781D01*
X023070Y017781D01*
X023054Y017786D01*
X023040Y017795D01*
X023029Y017808D01*
X023022Y017823D01*
X023019Y017840D01*
X023019Y018076D01*
X023021Y018085D01*
X023025Y018093D01*
X023031Y018100D01*
X023040Y018104D01*
X023049Y018106D01*
X023108Y018106D01*
X023116Y018106D01*
X023124Y018103D01*
X023131Y018099D01*
X023135Y018092D01*
X023138Y018084D01*
X023137Y018076D01*
X023137Y017840D01*
X023135Y017823D01*
X023128Y017808D01*
X023117Y017795D01*
X023107Y017789D02*
X023050Y017789D01*
X023021Y017827D02*
X023136Y017827D01*
X023137Y017866D02*
X023019Y017866D01*
X023019Y017904D02*
X023137Y017904D01*
X023137Y017943D02*
X023019Y017943D01*
X023019Y017981D02*
X023137Y017981D01*
X023137Y018020D02*
X023019Y018020D01*
X023019Y018058D02*
X023137Y018058D01*
X023132Y018097D02*
X023028Y018097D01*
X022941Y018084D02*
X022941Y018076D01*
X022941Y017840D01*
X022938Y017823D01*
X022931Y017808D01*
X022920Y017795D01*
X022906Y017786D01*
X022890Y017781D01*
X022873Y017781D01*
X022857Y017786D01*
X022843Y017795D01*
X022832Y017808D01*
X022825Y017823D01*
X022822Y017840D01*
X022822Y018076D01*
X022824Y018085D01*
X022828Y018093D01*
X022835Y018100D01*
X022843Y018104D01*
X022852Y018106D01*
X022911Y018106D01*
X022919Y018106D01*
X022927Y018103D01*
X022934Y018099D01*
X022938Y018092D01*
X022941Y018084D01*
X022935Y018097D02*
X022831Y018097D01*
X022822Y018058D02*
X022941Y018058D01*
X022941Y018020D02*
X022822Y018020D01*
X022822Y017981D02*
X022941Y017981D01*
X022941Y017943D02*
X022822Y017943D01*
X022822Y017904D02*
X022941Y017904D01*
X022941Y017866D02*
X022822Y017866D01*
X022824Y017827D02*
X022939Y017827D01*
X022910Y017789D02*
X022853Y017789D01*
X022741Y017823D02*
X022734Y017808D01*
X022723Y017795D01*
X022709Y017786D01*
X022693Y017781D01*
X022676Y017781D01*
X022660Y017786D01*
X022646Y017795D01*
X022635Y017808D01*
X022628Y017823D01*
X022626Y017840D01*
X022626Y018076D01*
X022627Y018085D01*
X022631Y018093D01*
X022638Y018100D01*
X022646Y018104D01*
X022655Y018106D01*
X022714Y018106D01*
X022722Y018106D01*
X022730Y018103D01*
X022737Y018099D01*
X022742Y018092D01*
X022744Y018084D01*
X022744Y018076D01*
X022744Y017840D01*
X022741Y017823D01*
X022742Y017827D02*
X022627Y017827D01*
X022626Y017866D02*
X022744Y017866D01*
X022744Y017904D02*
X022626Y017904D01*
X022626Y017943D02*
X022744Y017943D01*
X022744Y017981D02*
X022626Y017981D01*
X022626Y018020D02*
X022744Y018020D01*
X022744Y018058D02*
X022626Y018058D01*
X022635Y018097D02*
X022738Y018097D01*
X022547Y018084D02*
X022547Y018076D01*
X022547Y017840D01*
X022544Y017823D01*
X022537Y017808D01*
X022526Y017795D01*
X022512Y017786D01*
X022496Y017781D01*
X022479Y017781D01*
X022463Y017786D01*
X022449Y017795D01*
X022438Y017808D01*
X022431Y017823D01*
X022429Y017840D01*
X022429Y018076D01*
X022430Y018085D01*
X022434Y018093D01*
X022441Y018100D01*
X022449Y018104D01*
X022458Y018106D01*
X022517Y018106D01*
X022526Y018106D01*
X022533Y018103D01*
X022540Y018099D01*
X022545Y018092D01*
X022547Y018084D01*
X022541Y018097D02*
X022438Y018097D01*
X022429Y018058D02*
X022547Y018058D01*
X022547Y018020D02*
X022429Y018020D01*
X022429Y017981D02*
X022547Y017981D01*
X022547Y017943D02*
X022429Y017943D01*
X022429Y017904D02*
X022547Y017904D01*
X022547Y017866D02*
X022429Y017866D01*
X022431Y017827D02*
X022545Y017827D01*
X022516Y017789D02*
X022459Y017789D01*
X022348Y017823D02*
X022341Y017808D01*
X022330Y017795D01*
X022315Y017786D01*
X022299Y017781D01*
X022283Y017781D01*
X022266Y017786D01*
X022252Y017795D01*
X022241Y017808D01*
X022234Y017823D01*
X022232Y017840D01*
X022232Y018076D01*
X022233Y018085D01*
X022238Y018093D01*
X022244Y018100D01*
X022252Y018104D01*
X022261Y018106D01*
X022320Y018106D01*
X022329Y018106D01*
X022336Y018103D01*
X022343Y018099D01*
X022348Y018092D01*
X022350Y018084D01*
X022350Y018076D01*
X022350Y017840D01*
X022348Y017823D01*
X022348Y017827D02*
X022234Y017827D01*
X022232Y017866D02*
X022350Y017866D01*
X022350Y017904D02*
X022232Y017904D01*
X022232Y017943D02*
X022350Y017943D01*
X022350Y017981D02*
X022232Y017981D01*
X022232Y018020D02*
X022350Y018020D01*
X022350Y018058D02*
X022232Y018058D01*
X022241Y018097D02*
X022345Y018097D01*
X022153Y018084D02*
X022153Y018076D01*
X022153Y017840D01*
X022151Y017823D01*
X022144Y017808D01*
X022133Y017795D01*
X022119Y017786D01*
X022102Y017781D01*
X022086Y017781D01*
X022070Y017786D01*
X022055Y017795D01*
X022044Y017808D01*
X022037Y017823D01*
X022035Y017840D01*
X022035Y018076D01*
X022036Y018085D01*
X022041Y018093D01*
X022047Y018100D01*
X022055Y018104D01*
X022065Y018106D01*
X022124Y018106D01*
X022132Y018106D01*
X022140Y018103D01*
X022146Y018099D01*
X022151Y018092D01*
X022153Y018084D01*
X022148Y018097D02*
X022044Y018097D01*
X022035Y018058D02*
X022153Y018058D01*
X022153Y018020D02*
X022035Y018020D01*
X022035Y017981D02*
X022153Y017981D01*
X022153Y017943D02*
X022035Y017943D01*
X022035Y017904D02*
X022153Y017904D01*
X022153Y017866D02*
X022035Y017866D01*
X022037Y017827D02*
X022151Y017827D01*
X022123Y017789D02*
X022066Y017789D01*
X021954Y017823D02*
X021947Y017808D01*
X021936Y017795D01*
X021922Y017786D01*
X021906Y017781D01*
X021889Y017781D01*
X021873Y017786D01*
X021859Y017795D01*
X021848Y017808D01*
X021841Y017823D01*
X021838Y017840D01*
X021838Y018076D01*
X021840Y018085D01*
X021844Y018093D01*
X021850Y018100D01*
X021859Y018104D01*
X021868Y018106D01*
X021927Y018106D01*
X021935Y018106D01*
X021943Y018103D01*
X021949Y018099D01*
X021954Y018092D01*
X021957Y018084D01*
X021956Y018076D01*
X021956Y017840D01*
X021954Y017823D01*
X021954Y017827D02*
X021840Y017827D01*
X021838Y017866D02*
X021956Y017866D01*
X021956Y017904D02*
X021838Y017904D01*
X021838Y017943D02*
X021956Y017943D01*
X021956Y017981D02*
X021838Y017981D01*
X021838Y018020D02*
X021956Y018020D01*
X021956Y018058D02*
X021838Y018058D01*
X021847Y018097D02*
X021951Y018097D01*
X021760Y018084D02*
X021759Y018076D01*
X021759Y017840D01*
X021757Y017823D01*
X021750Y017808D01*
X021739Y017795D01*
X021725Y017786D01*
X021709Y017781D01*
X021692Y017781D01*
X021676Y017786D01*
X021662Y017795D01*
X021651Y017808D01*
X021644Y017823D01*
X021641Y017840D01*
X021641Y018076D01*
X021643Y018085D01*
X021647Y018093D01*
X021654Y018100D01*
X021662Y018104D01*
X021671Y018106D01*
X021730Y018106D01*
X021738Y018106D01*
X021746Y018103D01*
X021753Y018099D01*
X021757Y018092D01*
X021760Y018084D01*
X021754Y018097D02*
X021650Y018097D01*
X021641Y018058D02*
X021759Y018058D01*
X021759Y018020D02*
X021641Y018020D01*
X021641Y017981D02*
X021759Y017981D01*
X021759Y017943D02*
X021641Y017943D01*
X021641Y017904D02*
X021759Y017904D01*
X021759Y017866D02*
X021641Y017866D01*
X021643Y017827D02*
X021758Y017827D01*
X021729Y017789D02*
X021672Y017789D01*
X021560Y017823D02*
X021553Y017808D01*
X021542Y017795D01*
X021528Y017786D01*
X021512Y017781D01*
X021495Y017781D01*
X021479Y017786D01*
X021465Y017795D01*
X021454Y017808D01*
X021447Y017823D01*
X021444Y017840D01*
X021444Y018076D01*
X021446Y018085D01*
X021450Y018093D01*
X021457Y018100D01*
X021465Y018104D01*
X021474Y018106D01*
X021533Y018106D01*
X021541Y018106D01*
X021549Y018103D01*
X021556Y018099D01*
X021561Y018092D01*
X021563Y018084D01*
X021563Y018076D01*
X021563Y017840D01*
X021560Y017823D01*
X021561Y017827D02*
X021446Y017827D01*
X021444Y017866D02*
X021563Y017866D01*
X021563Y017904D02*
X021444Y017904D01*
X021444Y017943D02*
X021563Y017943D01*
X021563Y017981D02*
X021444Y017981D01*
X021444Y018020D02*
X021563Y018020D01*
X021563Y018058D02*
X021444Y018058D01*
X021453Y018097D02*
X021557Y018097D01*
X021366Y018084D02*
X021366Y018076D01*
X021366Y017840D01*
X021363Y017823D01*
X021356Y017808D01*
X021345Y017795D01*
X021331Y017786D01*
X021315Y017781D01*
X021298Y017781D01*
X021282Y017786D01*
X021268Y017795D01*
X021257Y017808D01*
X021250Y017823D01*
X021248Y017840D01*
X021248Y018076D01*
X021249Y018085D01*
X021253Y018093D01*
X021260Y018100D01*
X021268Y018104D01*
X021277Y018106D01*
X021336Y018106D01*
X021344Y018106D01*
X021352Y018103D01*
X021359Y018099D01*
X021364Y018092D01*
X021366Y018084D01*
X021360Y018097D02*
X021257Y018097D01*
X021248Y018058D02*
X021366Y018058D01*
X021366Y018020D02*
X021248Y018020D01*
X021248Y017981D02*
X021366Y017981D01*
X021366Y017943D02*
X021248Y017943D01*
X021248Y017904D02*
X021366Y017904D01*
X021366Y017866D02*
X021248Y017866D01*
X021249Y017827D02*
X021364Y017827D01*
X021335Y017789D02*
X021278Y017789D01*
X021154Y017682D02*
X021164Y017668D01*
X021168Y017651D01*
X021168Y017635D01*
X020844Y017635D01*
X020844Y017613D02*
X020844Y017673D01*
X021160Y017673D01*
X021154Y017682D02*
X021142Y017693D01*
X021126Y017700D01*
X021110Y017702D01*
X020874Y017702D01*
X020865Y017702D01*
X020858Y017700D01*
X020851Y017695D01*
X020846Y017689D01*
X020844Y017681D01*
X020844Y017673D01*
X020844Y017613D02*
X020846Y017604D01*
X020850Y017596D01*
X020856Y017590D01*
X020864Y017585D01*
X020874Y017584D01*
X021110Y017584D01*
X021126Y017586D01*
X021142Y017593D01*
X021154Y017604D01*
X021164Y017618D01*
X021168Y017635D01*
X021145Y017596D02*
X020850Y017596D01*
X020865Y017505D02*
X020874Y017505D01*
X021110Y017505D01*
X021126Y017503D01*
X021142Y017496D01*
X021154Y017485D01*
X021164Y017471D01*
X021168Y017455D01*
X021168Y017438D01*
X021164Y017422D01*
X021154Y017407D01*
X021142Y017396D01*
X021126Y017389D01*
X021110Y017387D01*
X020874Y017387D01*
X020864Y017389D01*
X020856Y017393D01*
X020850Y017399D01*
X020846Y017407D01*
X020844Y017417D01*
X020844Y017476D01*
X020844Y017484D01*
X020846Y017492D01*
X020851Y017498D01*
X020858Y017503D01*
X020865Y017505D01*
X020844Y017481D02*
X021157Y017481D01*
X021168Y017442D02*
X020844Y017442D01*
X020847Y017404D02*
X021150Y017404D01*
X021126Y017306D02*
X021142Y017299D01*
X021154Y017288D01*
X020844Y017288D01*
X020844Y017287D02*
X020846Y017295D01*
X020851Y017301D01*
X020858Y017306D01*
X020865Y017309D01*
X020874Y017308D01*
X021110Y017308D01*
X021126Y017306D01*
X021154Y017288D02*
X021164Y017274D01*
X021168Y017258D01*
X021168Y017241D01*
X021164Y017225D01*
X021154Y017211D01*
X021142Y017200D01*
X021126Y017193D01*
X021110Y017190D01*
X020874Y017190D01*
X020864Y017192D01*
X020856Y017196D01*
X020850Y017202D01*
X020846Y017211D01*
X020845Y017211D02*
X021155Y017211D01*
X021168Y017250D02*
X020844Y017250D01*
X020844Y017279D02*
X020844Y017287D01*
X020844Y017279D02*
X020844Y017220D01*
X020846Y017211D01*
X020865Y017112D02*
X020874Y017111D01*
X021110Y017111D01*
X021126Y017109D01*
X021142Y017102D01*
X021154Y017091D01*
X021164Y017077D01*
X021168Y017061D01*
X021168Y017044D01*
X021164Y017028D01*
X021154Y017014D01*
X021142Y017003D01*
X021126Y016996D01*
X021110Y016993D01*
X020874Y016993D01*
X020864Y016995D01*
X020856Y016999D01*
X020850Y017006D01*
X020846Y017014D01*
X020844Y017023D01*
X020844Y017082D01*
X020844Y017090D01*
X020846Y017098D01*
X020851Y017105D01*
X020858Y017109D01*
X020865Y017112D01*
X020845Y017096D02*
X021149Y017096D01*
X021168Y017057D02*
X020844Y017057D01*
X020845Y017019D02*
X021158Y017019D01*
X021475Y017789D02*
X021532Y017789D01*
X021869Y017789D02*
X021926Y017789D01*
X022262Y017789D02*
X022319Y017789D01*
X022656Y017789D02*
X022713Y017789D01*
X023541Y017673D02*
X023541Y017613D01*
D15*
X024724Y015714D03*
X025390Y015714D03*
X025390Y014530D03*
X024724Y014530D03*
D16*
X023669Y014830D03*
X023669Y014141D03*
X026150Y013902D03*
X026150Y014591D03*
X020900Y018139D03*
X020900Y018828D03*
X020450Y016278D03*
X020450Y015589D03*
D17*
X024458Y016470D03*
X024456Y017055D03*
X025145Y017055D03*
X025147Y016470D03*
X025863Y017040D03*
X026552Y017040D03*
X027162Y016772D03*
X027851Y016772D03*
X026926Y015890D03*
X026237Y015890D03*
X025376Y013740D03*
X024687Y013740D03*
D18*
X020813Y013890D03*
X020813Y014480D03*
X020050Y014486D03*
X020050Y013895D03*
X012750Y013895D03*
X012750Y014486D03*
X012000Y014486D03*
X012000Y013895D03*
X011250Y013895D03*
X011250Y014486D03*
D19*
X018950Y015191D03*
X001450Y027341D03*
D20*
X001450Y013191D03*
X001450Y014191D03*
X001450Y015191D03*
X001450Y016191D03*
X002450Y016191D03*
X002450Y015191D03*
X002450Y014191D03*
X002450Y013191D03*
X002450Y017191D03*
X001450Y017191D03*
X002450Y027341D03*
X002450Y028341D03*
X002450Y029341D03*
X001450Y029341D03*
X001450Y028341D03*
X017950Y015191D03*
X017950Y014191D03*
X018950Y014191D03*
X018950Y013191D03*
X017950Y013191D03*
D21*
X017875Y025126D03*
X017639Y025126D03*
X017403Y025126D03*
X017167Y025126D03*
X016930Y025126D03*
X016694Y025126D03*
X016458Y025126D03*
X016222Y025126D03*
X015985Y025126D03*
X015749Y025126D03*
X015513Y025126D03*
X015277Y025126D03*
X015041Y025126D03*
X014804Y025126D03*
X014568Y025126D03*
X014332Y025126D03*
X014096Y025126D03*
X013859Y025126D03*
X013623Y025126D03*
X013387Y025126D03*
X013151Y025126D03*
X012915Y025126D03*
X012678Y025126D03*
X012442Y025126D03*
X012206Y025126D03*
X011970Y025126D03*
X011733Y025126D03*
X011497Y025126D03*
X011261Y025126D03*
X011025Y025126D03*
X010789Y025126D03*
X010552Y025126D03*
X010316Y025126D03*
X010080Y025126D03*
X009844Y025126D03*
X009607Y025126D03*
X009371Y025126D03*
X009135Y025126D03*
X008899Y025126D03*
X008663Y025126D03*
X008426Y025126D03*
X008190Y025126D03*
X007954Y025126D03*
X007718Y025126D03*
X007481Y025126D03*
X007245Y025126D03*
X007009Y025126D03*
X006773Y025126D03*
X006537Y025126D03*
X006300Y025126D03*
X006064Y025126D03*
X005828Y025126D03*
X005592Y025126D03*
X005356Y025126D03*
X005119Y025126D03*
X004883Y025126D03*
X005001Y028355D03*
X005237Y028355D03*
X005474Y028355D03*
X005710Y028355D03*
X005946Y028355D03*
X006182Y028355D03*
X006419Y028355D03*
X006655Y028355D03*
X006891Y028355D03*
X007127Y028355D03*
X007363Y028355D03*
X007600Y028355D03*
X007836Y028355D03*
X008072Y028355D03*
X008308Y028355D03*
X008544Y028355D03*
X008781Y028355D03*
X009017Y028355D03*
X009253Y028355D03*
X009489Y028355D03*
X009726Y028355D03*
X009962Y028355D03*
X010198Y028355D03*
X010434Y028355D03*
X010670Y028355D03*
X010907Y028355D03*
X011143Y028355D03*
X011379Y028355D03*
X011615Y028355D03*
X011852Y028355D03*
X012088Y028355D03*
X012324Y028355D03*
X012560Y028355D03*
X012796Y028355D03*
X013033Y028355D03*
X013269Y028355D03*
X013505Y028355D03*
X013741Y028355D03*
X013978Y028355D03*
X014214Y028355D03*
X014450Y028355D03*
X014686Y028355D03*
X014922Y028355D03*
X015159Y028355D03*
X015395Y028355D03*
X015631Y028355D03*
X015867Y028355D03*
X016104Y028355D03*
X016340Y028355D03*
X016576Y028355D03*
X016812Y028355D03*
X017048Y028355D03*
X017285Y028355D03*
X017521Y028355D03*
X017757Y028355D03*
X017993Y028355D03*
X018230Y028355D03*
X018466Y028355D03*
X018702Y028355D03*
X018938Y028355D03*
X019174Y028355D03*
X019411Y028355D03*
X019647Y028355D03*
X019883Y028355D03*
X020119Y028355D03*
X020356Y028355D03*
X020592Y028355D03*
X020828Y028355D03*
X021064Y028355D03*
X021300Y028355D03*
X021537Y028355D03*
X021773Y028355D03*
X022009Y028355D03*
X022245Y028355D03*
X022481Y028355D03*
X022718Y028355D03*
X022954Y028355D03*
X023190Y028355D03*
X023426Y028355D03*
X023663Y028355D03*
X025316Y028355D03*
X025552Y028355D03*
X025789Y028355D03*
X026025Y028355D03*
X026261Y028355D03*
X026497Y028355D03*
X026733Y028355D03*
X026970Y028355D03*
X027206Y028355D03*
X027442Y028355D03*
X027678Y028355D03*
X027915Y028355D03*
X028151Y028355D03*
X028387Y028355D03*
X028623Y028355D03*
X028859Y028355D03*
X029096Y028355D03*
X029332Y028355D03*
X029568Y028355D03*
X029804Y028355D03*
X029686Y025126D03*
X029450Y025126D03*
X029214Y025126D03*
X028978Y025126D03*
X028741Y025126D03*
X028505Y025126D03*
X028269Y025126D03*
X028033Y025126D03*
X027796Y025126D03*
X027560Y025126D03*
X027324Y025126D03*
X027088Y025126D03*
X026852Y025126D03*
X026615Y025126D03*
X026379Y025126D03*
X026143Y025126D03*
X025907Y025126D03*
X025670Y025126D03*
X025434Y025126D03*
X025198Y025126D03*
X023544Y025126D03*
X023308Y025126D03*
X023072Y025126D03*
X022836Y025126D03*
X022600Y025126D03*
X022363Y025126D03*
X022127Y025126D03*
X021891Y025126D03*
X021655Y025126D03*
X021419Y025126D03*
X021182Y025126D03*
X020946Y025126D03*
X020710Y025126D03*
X020474Y025126D03*
X020237Y025126D03*
X020001Y025126D03*
X019765Y025126D03*
X019529Y025126D03*
X019293Y025126D03*
X019056Y025126D03*
X018820Y025126D03*
X018584Y025126D03*
X018348Y025126D03*
X018111Y025126D03*
D22*
X030159Y022016D03*
X004529Y022016D03*
D23*
X030493Y026741D03*
D24*
X004194Y026741D03*
D25*
X013622Y014150D03*
X016378Y014150D03*
D26*
X015984Y013166D03*
X014016Y013166D03*
D27*
X028400Y016791D03*
X031000Y016791D03*
D28*
X031051Y014441D03*
X031051Y013941D03*
X031051Y013441D03*
X031051Y012941D03*
X029649Y012941D03*
X029649Y013441D03*
X029649Y013941D03*
X029649Y014441D03*
D29*
X005500Y018556D03*
X005500Y023726D03*
D30*
X003650Y024691D03*
X004800Y027241D03*
X005250Y029091D03*
X006900Y027141D03*
D31*
X003700Y029341D03*
X004200Y023841D03*
X002700Y022341D03*
X002700Y020841D03*
X004200Y020841D03*
X005700Y020841D03*
X004200Y019341D03*
X002600Y019341D03*
X001700Y018041D03*
X005850Y015141D03*
X005450Y014041D03*
X005650Y013341D03*
X007550Y014941D03*
X008350Y015491D03*
X009100Y014091D03*
X008300Y013741D03*
X008700Y013341D03*
X011250Y016291D03*
X012000Y016291D03*
X012750Y016291D03*
X013700Y015841D03*
X015200Y014841D03*
X016500Y015841D03*
X015200Y013341D03*
X012200Y013341D03*
X009200Y017841D03*
X009200Y019341D03*
X008350Y019791D03*
X009200Y020841D03*
X010700Y020841D03*
X010700Y022341D03*
X012200Y022341D03*
X013700Y022341D03*
X013700Y020841D03*
X012200Y020841D03*
X012200Y019341D03*
X013700Y019341D03*
X015200Y019341D03*
X015200Y020841D03*
X015200Y022341D03*
X015200Y023841D03*
X013700Y023841D03*
X012200Y023841D03*
X011700Y026491D03*
X012200Y026841D03*
X011200Y027441D03*
X012200Y029341D03*
X013700Y029341D03*
X015200Y029341D03*
X016700Y029341D03*
X018200Y029341D03*
X016700Y026841D03*
X015200Y026841D03*
X013700Y026841D03*
X018700Y026091D03*
X019150Y026091D03*
X019600Y026091D03*
X020100Y024341D03*
X021150Y024341D03*
X022350Y024341D03*
X023308Y025741D03*
X022950Y026041D03*
X022550Y026041D03*
X022600Y027691D03*
X022100Y027741D03*
X021550Y027741D03*
X024100Y024991D03*
X025510Y025741D03*
X025800Y026241D03*
X026100Y026541D03*
X026400Y026291D03*
X026750Y026091D03*
X027400Y026241D03*
X028700Y026241D03*
X028850Y026991D03*
X028550Y027291D03*
X029450Y026991D03*
X030200Y026241D03*
X030200Y025341D03*
X030200Y023841D03*
X028700Y023841D03*
X028700Y022541D03*
X027000Y021641D03*
X027000Y021141D03*
X026300Y021641D03*
X026650Y022141D03*
X026300Y022441D03*
X026400Y023391D03*
X026700Y023691D03*
X026300Y020641D03*
X025850Y020391D03*
X025200Y020391D03*
X024600Y020291D03*
X024000Y020291D03*
X023350Y020691D03*
X024850Y019441D03*
X024650Y018141D03*
X023900Y017141D03*
X023900Y016391D03*
X023550Y015641D03*
X023200Y014441D03*
X022650Y013991D03*
X022200Y013341D03*
X020700Y013341D03*
X021950Y015191D03*
X022290Y015161D03*
X020850Y015491D03*
X022950Y017491D03*
X023250Y018191D03*
X022650Y018441D03*
X022400Y018691D03*
X021400Y018391D03*
X020900Y019191D03*
X019700Y020841D03*
X019700Y021541D03*
X019700Y022541D03*
X019250Y022791D03*
X018500Y018141D03*
X010700Y019341D03*
X007700Y017841D03*
X025600Y029291D03*
X025900Y029641D03*
X026650Y029091D03*
X027300Y029091D03*
X028700Y029341D03*
X030200Y029341D03*
X031200Y028341D03*
X029150Y019641D03*
X027700Y019841D03*
X026950Y015441D03*
X027600Y014741D03*
X027900Y015041D03*
X029000Y014441D03*
M02*
