G75*
%MOIN*%
%OFA0B0*%
%FSLAX24Y24*%
%IPPOS*%
%LPD*%
%AMOC8*
5,1,8,0,0,1.08239X$1,22.5*
%
%ADD10C,0.1182*%
%ADD11R,0.1025X0.1025*%
%ADD12R,0.0407X0.0328*%
%ADD13R,0.0790X0.0710*%
%ADD14R,0.0198X0.0552*%
%ADD15R,0.0552X0.0198*%
%ADD16R,0.0592X0.0671*%
%ADD17R,0.0680X0.0630*%
%ADD18R,0.0505X0.0493*%
%ADD19R,0.0493X0.0505*%
%ADD20R,0.0671X0.0592*%
%ADD21R,0.0513X0.0474*%
%ADD22R,0.0474X0.0513*%
%ADD23R,0.0395X0.0552*%
%ADD24R,0.0395X0.0167*%
%ADD25R,0.0198X0.0395*%
%ADD26R,0.0395X0.0198*%
%ADD27R,0.0237X0.0178*%
%ADD28R,0.0395X0.0395*%
%ADD29C,0.0680*%
%ADD30OC8,0.0680*%
%ADD31R,0.0379X0.0887*%
%ADD32R,0.0200X0.0400*%
%ADD33R,0.1320X0.0750*%
%ADD34R,0.0946X0.0710*%
%ADD35R,0.0300X0.0600*%
%ADD36R,0.1458X0.1064*%
%ADD37R,0.0789X0.1143*%
%ADD38C,0.0710*%
%ADD39OC8,0.0358*%
%ADD40OC8,0.0476*%
D10*
X007617Y014690D03*
D11*
X005033Y017890D03*
X003301Y017890D03*
X002067Y017574D03*
X002067Y019306D03*
X002417Y014006D03*
X002417Y012274D03*
D12*
X005117Y015837D03*
X005117Y016743D03*
D13*
X003817Y014100D03*
X003817Y012980D03*
D14*
X005640Y010854D03*
X005837Y010854D03*
X006034Y010854D03*
X006231Y010854D03*
X006428Y010854D03*
X006625Y010854D03*
X006821Y010854D03*
X007018Y010854D03*
X007215Y010854D03*
X007412Y010854D03*
X007609Y010854D03*
X007806Y010854D03*
X008002Y010854D03*
X008199Y010854D03*
X008396Y010854D03*
X008593Y010854D03*
X008593Y006326D03*
X008396Y006326D03*
X008199Y006326D03*
X008002Y006326D03*
X007806Y006326D03*
X007609Y006326D03*
X007412Y006326D03*
X007215Y006326D03*
X007018Y006326D03*
X006821Y006326D03*
X006625Y006326D03*
X006428Y006326D03*
X006231Y006326D03*
X006034Y006326D03*
X005837Y006326D03*
X005640Y006326D03*
D15*
X004853Y007113D03*
X004853Y007310D03*
X004853Y007507D03*
X004853Y007704D03*
X004853Y007901D03*
X004853Y008098D03*
X004853Y008294D03*
X004853Y008491D03*
X004853Y008688D03*
X004853Y008885D03*
X004853Y009082D03*
X004853Y009279D03*
X004853Y009476D03*
X004853Y009672D03*
X004853Y009869D03*
X004853Y010066D03*
X009380Y010066D03*
X009380Y009869D03*
X009380Y009672D03*
X009380Y009476D03*
X009380Y009279D03*
X009380Y009082D03*
X009380Y008885D03*
X009380Y008688D03*
X009380Y008491D03*
X009380Y008294D03*
X009380Y008098D03*
X009380Y007901D03*
X009380Y007704D03*
X009380Y007507D03*
X009380Y007310D03*
X009380Y007113D03*
D16*
X004191Y007890D03*
X003443Y007890D03*
X007343Y018040D03*
X007343Y018740D03*
X008091Y018740D03*
X008091Y018040D03*
X008391Y019440D03*
X007643Y019440D03*
D17*
X007625Y012423D03*
X007625Y011757D03*
X008809Y011757D03*
X008809Y012423D03*
D18*
X008967Y013045D03*
X008367Y013045D03*
X008367Y013734D03*
X008967Y013734D03*
X010037Y010334D03*
X010037Y009645D03*
X013167Y008934D03*
X013167Y008245D03*
X014417Y006984D03*
X014417Y006295D03*
X016442Y007095D03*
X016442Y007784D03*
X007967Y022145D03*
X007967Y022834D03*
X007317Y022834D03*
X007317Y022145D03*
D19*
X003972Y006540D03*
X004661Y006540D03*
X003961Y009690D03*
X003272Y009690D03*
X006372Y019690D03*
X007061Y019690D03*
X012472Y009440D03*
X013161Y009440D03*
X014922Y007640D03*
X015611Y007640D03*
X015611Y006190D03*
X014922Y006190D03*
D20*
X011417Y009466D03*
X011417Y010214D03*
X004742Y013166D03*
X004742Y013914D03*
D21*
X006217Y015705D03*
X006217Y016374D03*
X007082Y016640D03*
X007751Y016640D03*
X008942Y014974D03*
X008942Y014305D03*
X007701Y013065D03*
X007032Y013065D03*
D22*
X007032Y013615D03*
X007701Y013615D03*
X007751Y016090D03*
X007082Y016090D03*
X006751Y019140D03*
X006082Y019140D03*
X003117Y016774D03*
X003117Y016105D03*
X003117Y015524D03*
X003117Y014855D03*
X012507Y007490D03*
X013176Y007490D03*
X016417Y009605D03*
X016417Y010274D03*
D23*
X016771Y009040D03*
X016062Y009040D03*
X014421Y007540D03*
X013712Y007540D03*
X013171Y010040D03*
X012462Y010040D03*
X004821Y012040D03*
X004112Y012040D03*
D24*
X015208Y007255D03*
X015208Y007097D03*
X015208Y006940D03*
X015208Y006782D03*
X015208Y006625D03*
X015925Y006625D03*
X015925Y006782D03*
X015925Y006940D03*
X015925Y007097D03*
X015925Y007255D03*
D25*
X014909Y008270D03*
X014712Y008270D03*
X014515Y008270D03*
X014318Y008270D03*
X014121Y008270D03*
X013925Y008270D03*
X013925Y010209D03*
X014121Y010209D03*
X014318Y010209D03*
X014515Y010209D03*
X014712Y010209D03*
X014909Y010209D03*
D26*
X015189Y009929D03*
X015189Y009732D03*
X015189Y009535D03*
X015189Y009338D03*
X015189Y009141D03*
X015189Y008944D03*
X015189Y008748D03*
X015189Y008551D03*
X013644Y008551D03*
X013644Y008748D03*
X013644Y008944D03*
X013644Y009141D03*
X013644Y009338D03*
X013644Y009535D03*
X013644Y009732D03*
X013644Y009929D03*
D27*
X016853Y009943D03*
X016857Y010140D03*
X016857Y010337D03*
X017377Y010337D03*
X017377Y010140D03*
X017377Y009943D03*
D28*
X017042Y008035D03*
X017042Y007444D03*
X013542Y006835D03*
X013042Y006840D03*
X013042Y006249D03*
X013542Y006244D03*
X012542Y006249D03*
X012542Y006840D03*
D29*
X017917Y008740D03*
X002417Y020890D03*
D30*
X002417Y021890D03*
X002417Y022890D03*
X001417Y022890D03*
X001417Y021890D03*
X001417Y020890D03*
X009017Y022790D03*
X009017Y018140D03*
X002417Y010740D03*
X002417Y009740D03*
X002417Y008740D03*
X002417Y007740D03*
X002417Y006740D03*
X001417Y006740D03*
X001417Y007740D03*
X001417Y008740D03*
X001417Y009740D03*
X001417Y010740D03*
X017917Y007740D03*
X017917Y006740D03*
X018917Y006740D03*
X018917Y007740D03*
X018917Y008740D03*
D31*
X011767Y008241D03*
X011267Y008241D03*
X010767Y008241D03*
X010267Y008241D03*
X010267Y006839D03*
X010767Y006839D03*
X011267Y006839D03*
X011767Y006839D03*
D32*
X008157Y020110D03*
X007967Y020110D03*
X007767Y020110D03*
X007567Y020110D03*
X007377Y020110D03*
X007377Y021270D03*
X007567Y021270D03*
X007767Y021270D03*
X007967Y021270D03*
X008157Y021270D03*
D33*
X007767Y020690D03*
D34*
X009117Y021241D03*
X009117Y020139D03*
D35*
X006737Y018520D03*
X006367Y017660D03*
X005997Y018520D03*
D36*
X006296Y021690D03*
X003737Y021690D03*
D37*
X003601Y019340D03*
X005333Y019340D03*
D38*
X009233Y016833D03*
X009233Y016046D03*
X001550Y016133D03*
X001550Y015346D03*
D39*
X003167Y011740D03*
X003567Y011740D03*
X003567Y011340D03*
X004417Y010390D03*
X003017Y009290D03*
X003317Y008690D03*
X005267Y006540D03*
X005667Y006890D03*
X005667Y007390D03*
X005817Y007890D03*
X006217Y007890D03*
X006617Y007890D03*
X007017Y007890D03*
X007417Y007890D03*
X007817Y007890D03*
X008367Y007040D03*
X008767Y006890D03*
X008867Y007290D03*
X008867Y006490D03*
X010217Y007440D03*
X010617Y007440D03*
X010917Y008890D03*
X010867Y009290D03*
X010567Y009540D03*
X010517Y009990D03*
X009517Y011840D03*
X008717Y009890D03*
X007117Y010340D03*
X005367Y008340D03*
X006567Y007090D03*
X006917Y006890D03*
X005417Y012540D03*
X005417Y012940D03*
X004817Y012640D03*
X005667Y014040D03*
X006067Y014890D03*
X006367Y015190D03*
X006867Y014340D03*
X006627Y016040D03*
X005617Y016790D03*
X005267Y018590D03*
X004567Y018640D03*
X002067Y020040D03*
X001917Y020640D03*
X001417Y020290D03*
X008217Y016440D03*
X008567Y015540D03*
X009017Y017440D03*
X015667Y009690D03*
X015667Y009290D03*
X015587Y008110D03*
X016867Y006940D03*
X017267Y006940D03*
X016467Y006490D03*
X014067Y007890D03*
X013717Y007040D03*
X013967Y006340D03*
X012117Y006490D03*
X012067Y007440D03*
X012617Y009040D03*
X001417Y011390D03*
D40*
X001517Y013590D03*
X003867Y015490D03*
X004467Y015490D03*
X004467Y016090D03*
X003867Y016090D03*
X005217Y015340D03*
X004417Y019640D03*
X004317Y020590D03*
X005167Y022290D03*
X008967Y019390D03*
X008017Y009390D03*
X005467Y008840D03*
X005467Y008840D03*
M02*
